trainingSet,testSet,predictionTime,trainingTime,RMSE0,MAE0
100,1000,0.00838429999999999,0,103.192,67.911
200,1000,0.0131707,0,92.97147,58.35
300,1000,0.0237205,0,92.15411,55.045
400,1000,0.0233111,0,88.29495,52.125
500,1000,0.0340461,0,87.62655,51.08
600,1000,0.0481944000000001,0,85.96391,49.744
700,1000,0.038461,0,87.56764,50.726
800,1000,0.0452574999999999,0,86.68801,50.321
900,1000,0.0583106000000001,0,87.12421,50.113
1000,1000,0.1666836,0,87.24562,49.65
1100,1000,0.0770736999999999,0,86.14691,49.275
1200,1000,0.0708558999999999,0,85.55305,48.16
1300,1000,0.0759513999999999,0,84.58667,48.059
1400,1000,0.1210346,0,82.99036,47.088
1500,1000,0.102777,0,81.87337,45.907
1600,1000,0.1095621,0,81.86446,45.407
1700,1000,0.1020517,0,81.93711,46.044
1800,1000,0.1481124,0,81.53037,45.865
1900,1000,0.0903371999999999,0,82.3494,46.338
2000,1000,0.116353,0,80.80766,45.625
2100,1000,0.12415,0,82.62624,47.039
2200,1000,0.1349818,0,82.98396,47.099
2300,1000,0.1992803,0,79.78679,46.009
2400,1000,0.1726994,0,79.91455,45.164
2500,1000,0.1202931,0,80.69482,45.349
2600,1000,0.1747354,0,80.19501,45.945
2700,1000,0.1250452,0,79.65305,45.877
2800,1000,0.1723898,0,81.01035,45.794
2900,1000,0.1631223,0,79.45294,45.596
3000,1000,0.1365777,0,80.10883,45.196
3100,1000,0.15537,0,79.44591,45.152
3200,1000,0.1699557,0,80.39906,45.534
3300,1000,0.1643807,0,80.58073,45.563
3400,1000,0.1629924,0,80.21821,45.207
3500,1000,0.1985912,0,79.72382,44.88
3600,1000,0.180161,0,79.86964,45.082
3700,1000,0.1654798,0,78.74925,44.613
3800,1000,0.177048,0,78.34552,44.289
3900,1000,0.1820766,0,78.40151,44.279
4000,1000,0.191496,0,77.65407,43.459
4100,1000,0.1846645,0,77.43513,43.488
4200,1000,0.2343419,0,77.83993,43.642
4300,1000,0.2090556,0,77.92503,43.629
4400,1000,0.195034,0,77.47381,43.221
4500,1000,0.1973751,0,77.49522,43.27
4600,1000,0.2086061,0,77.95997,43.631
4700,1000,0.2176923,0,79.82916,44.29
4800,1000,0.2336854,0,78.68208,43.879
4900,1000,0.2708849,0,77.48262,43.044
5000,1000,0.2643602,0,79.57668,44.432
5100,1000,0.2567147,0,79.31979,44.107
5200,1000,0.2842291,0,78.50642,43.614
5300,1000,0.248182,0,78.11674,43.8
5400,1000,0.244871,0,78.74245,43.999
5500,1000,0.2440061,0,78.29089,43.639
5600,1000,0.2681739,0,78.3645,43.471
5700,1000,0.297852,0,78.26464,43.444
5800,1000,0.2598027,0,77.45261,42.813
5900,1000,0.3110338,0,77.98874,43.413
6000,1000,0.3211368,0,76.87462,42.603
6100,1000,0.339654,0,76.66428,42.246
6200,1000,0.2855357,0,78.93585,43.6
6300,1000,0.4583579,0,79.93233,43.683
6400,1000,0.4256945,0,80.73832,44.378
6500,1000,0.2935558,0,80.95688,44.536
6600,1000,0.353695900000001,0,79.59779,43.769
6700,1000,0.3469671,0,81.15057,44.689
6800,1000,0.3566188,0,78.48069,42.805
6900,1000,0.4388932,0,78.12826,42.605
7000,1000,0.3264166,0,79.22389,43.099
7100,1000,0.3574234,0,79.22739,43.056
7200,1000,0.3629601,0,78.93694,43.098
7300,1000,0.3545177,0,79.52037,43.623
7400,1000,0.652918199999999,0,78.85889,43.249
7500,1000,0.361878000000001,0,78.87202,43.407
7600,1000,0.8366953,0,79.93064,43.983
7700,1000,0.3913592,0,80.08813,44.342
7800,1000,0.4239077,0,79.46613,43.899
7900,1000,0.4376098,0,80.03246,44.19
8000,1000,0.444068099999999,0,79.13857,43.577
8100,1000,0.3912819,0,80.43568,44.382
8200,1000,0.415654499999999,0,80.8638,44.668
8300,1000,0.4264262,0,80.25394,44.42
8400,1000,0.3937696,0,80.7179,44.673
8500,1000,0.559505700000001,0,80.37244,44.34
8600,1000,0.405419,0,80.60274,44.342
8700,1000,0.4165179,0,80.35787,44.132
8800,1000,0.4217936,0,80.50703,44.496
8900,1000,0.4217132,0,80.78909,44.622
9000,1000,0.4831833,0,81.03203,44.456
9100,1000,0.4619416,0,81.12085,44.573
9200,1000,0.4492891,0,80.93377,44.375
9300,1000,0.4308307,0,81.11991,44.574
9400,1000,0.432531100000001,0,81.11991,44.574
9500,1000,0.4464893,0,81.50371,44.937
9600,1000,0.4492061,0,82.55287,45.702
9700,1000,0.444698799999999,0,82.87666,46.055
9800,1000,0.4591419,0,83.37356,46.304
9900,1000,0.517914600000001,0,83.20476,46.354
10000,1000,0.4745655,0,83.86283,46.8
5000,10000,0.22109838,0,102.4901,60.6737
