trainingSet,testSet,predictionTime,trainingTime,RMSE0,MAE0
100,1000,0.0113531,90,59.30943,48.2056150
200,1000,0.0131207,156,55.15953,42.2327750
300,1000,0.0144266,320,53.42412,41.8494850
400,1000,0.0136709,396,52.02026,39.6991350
500,1000,0.0950864000000002,746,51.84628,38.7929150
600,1000,0.0254872,517,50.92515,38.048250
700,1000,0.0154082,612,50.69384,37.5853550
800,1000,0.0540843,1436,50.66203,37.09750
900,1000,0.0312267,1073,49.6361,36.1264550
1000,1000,0.0220441,997,49.38554,36.2824950
1100,1000,0.02081,797,48.82726,35.866250
1200,1000,0.0190315,877,48.29525,35.7230450
1300,1000,0.0189421,923,49.50785,36.4851550
1400,1000,0.021153,1148,48.22477,35.2747750
1500,1000,0.0436389,1328,48.6481,35.1637250
1600,1000,0.0181544,1225,48.75481,35.6218650
1700,1000,0.0234213,1120,47.5033,34.9568150
1800,1000,0.0202074,1245,47.0927,34.9971750
1900,1000,0.014081,905,48.17851,35.1189250
2000,1000,0.0141014,903,47.26812,34.5576950
2100,1000,0.0172096,1320,47.41491,34.873650
2200,1000,0.1636539,1361,47.11458,34.2252350
2300,1000,0.0162614,1177,46.76254,34.0633350
2400,1000,0.0146501,1217,46.60349,34.1241150
2500,1000,0.0202988,1088,46.63762,33.9867450
2600,1000,0.0143739,1154,46.7761,34.1350150
2700,1000,0.0126478,1112,46.69911,33.7332650
2800,1000,0.0211919,1233,46.78534,33.7747350
2900,1000,0.0278618,1430,47.15831,34.0505850
3000,1000,0.0132122,1203,46.26838,33.6173550
3100,1000,0.0129237,1148,45.98503,33.4403650
3200,1000,0.0143604,1194,46.46798,33.5544950
3300,1000,0.0158969,1534,46.66118,33.4757250
3400,1000,0.0172044,1581,46.78584,33.6801750
3500,1000,0.0176553,1598,46.34887,33.2190250
3600,1000,0.0127375,1614,46.70052,33.6017650
3700,1000,0.0143466,1351,46.60272,33.7380150
3800,1000,0.0142741,1464,46.26096,33.3330350
3900,1000,0.0131276,1481,46.22119,33.3675450
4000,1000,0.0170492,1753,46.09404,33.2203450
4100,1000,0.0130818,1503,45.85344,33.1520350
4200,1000,0.0131655,1510,45.89758,33.2324550
4300,1000,0.0141823,1468,45.95636,32.9127850
4400,1000,0.0154998,1615,45.77012,33.0272250
4500,1000,0.0134216,1571,46.14506,33.2477350
4600,1000,0.0138947,1877,45.7899,32.803750
4700,1000,0.0242558,1903,45.66409,33.0370650
4800,1000,0.016784,1755,45.59968,32.8789650
4900,1000,0.014923,1923,46.25734,33.3216950
5000,1000,0.0172782,2496,45.99461,33.0816350
5100,1000,0.0130918,1895,45.99417,32.9650950
5200,1000,0.0146625,1944,45.67322,32.6291550
5300,1000,0.0145045,1845,45.59433,32.6183950
5400,1000,0.0156419,1873,45.92273,32.9901750
5500,1000,0.0143979,1930,45.71939,32.7626450
5600,1000,0.0141345,2020,45.43778,32.5602850
5700,1000,0.0133025,1921,45.69821,32.7265950
5800,1000,0.0142689,1904,46.00599,33.1969250
5900,1000,0.012814,2047,45.58355,32.5430650
6000,1000,0.0141376,2187,45.75516,32.8409250
6100,1000,0.0150287,2159,45.87276,32.796450
6200,1000,0.0141142,2094,45.75705,32.6069350
6300,1000,0.0220029,2897,44.82878,31.9250550
6400,1000,0.0120576,3608,45.64811,32.7456850
6500,1000,0.0128883,2060,46.28767,33.2552550
6600,1000,0.0123736,2103,45.6893,32.7011350
6700,1000,0.0144156,2196,45.52921,32.5798250
6800,1000,0.0137485,2232,45.88687,32.7965450
6900,1000,0.0214865999999999,3239,45.97177,32.8928150
7000,1000,0.0135913,2220,45.85878,33.3479850
7100,1000,0.0130038,2393,45.45887,32.7469850
7200,1000,0.0131459,2311,45.8602,32.9205150
7300,1000,0.0142602,2287,45.77531,32.7747350
7400,1000,0.0273311999999999,4534,45.48456,32.4386150
7500,1000,0.0145262,2498,46.23566,32.9867650
7600,1000,0.0179519,2584,45.5516,32.4523150
7700,1000,0.0152908,2702,45.35962,32.2931950
7800,1000,0.0140165,2391,45.68828,32.8041750
7900,1000,0.0156092,2608,45.89217,32.8469550
8000,1000,0.0141732,2912,45.6043,32.8419650
8100,1000,0.0153248,2730,45.39484,32.3961750
8200,1000,0.0136369,2635,45.75864,32.7425350
8300,1000,0.0201137,2551,45.95471,32.8873950
8400,1000,0.0130404,2497,45.84034,32.8074850
8500,1000,0.019199,3958,46.12591,32.9753550
8600,1000,0.0128433,2543,45.84062,33.0087550
8700,1000,0.0124899,2559,45.72615,32.5652450
8800,1000,0.0129555,2828,45.52543,32.4735750
8900,1000,0.0144835,2690,45.70874,32.7339650
9000,1000,0.0136669,2686,45.71053,32.7004950
9100,1000,0.016714,2939,46.09234,32.9550
9200,1000,0.0677656000000001,2930,45.86295,32.7715550
9300,1000,0.0144748,2772,45.848,32.8677450
9400,1000,0.0130799,2783,45.47165,32.6054450
9500,1000,0.0146883,2859,45.91212,32.8640850
9600,1000,0.0136527,2861,46.00779,32.8701550
9700,1000,0.0128193,2870,46.25566,33.3293650
9800,1000,0.0143789,2885,45.88356,32.9736550
9900,1000,0.0126341,3053,46.07151,33.2182750
10000,1000,0.0140478,2968,46.61097,33.4595450
100,1000,0.00762489999999999,40,58.75002,47.3817850
200,1000,0.0079725,114,55.8222,43.114850
300,1000,0.00847679999999999,185,53.22898,41.6116150
400,1000,0.0090103,243,52.30319,40.0349250
500,1000,0.00921329999999999,302,52.33883,39.8139950
600,1000,0.0100701,382,51.15231,37.878350
700,1000,0.0109696,397,51.31059,37.3956850
800,1000,0.0101451,434,49.51997,36.2539450
100,1000,0.00298129999999999,14,60.42535,48.38636
200,1000,0.0041441,36,57.28664,43.77212
300,1000,0.0042561,60,55.72216,42.36226
400,1000,0.00403389999999999,94,53.80057,40.64708
500,1000,0.00365729999999999,109,52.63332,40.14434
600,1000,0.00357199999999999,116,52.14344,39.26264
700,1000,0.00388659999999998,147,51.23921,37.82664
800,1000,0.0045029,157,50.97431,37.7465
900,1000,0.00381659999999999,173,51.77667,36.35764
1000,1000,0.0046601,178,50.52521,37.07233
1100,1000,0.0043625,174,49.64818,36.67506
1200,1000,0.0037309,187,49.92394,36.60545
1300,1000,0.00382969999999999,195,49.115,36.0895
1400,1000,0.00412439999999998,198,48.7394,35.3281
1500,1000,0.00440759999999999,226,49.34593,35.57785
1600,1000,0.00441439999999999,243,47.94677,34.828
1700,1000,0.00423729999999999,294,48.19017,35.13118
1800,1000,0.00876179999999998,271,47.63704,34.7681
1900,1000,0.00483559999999999,276,48.10842,34.346
2000,1000,0.0043021,272,47.57362,33.98237
2100,1000,0.0752763000000002,335,47.55437,33.98923
2200,1000,0.0041939,267,48.53976,34.86372
2300,1000,0.0046848,315,48.47491,34.93877
2400,1000,0.00442469999999999,297,47.37125,34.23307
2500,1000,0.0038509,284,47.15726,33.67448
2600,1000,0.0048007,367,47.11579,34.28202
2700,1000,0.0047433,346,48.03156,34.90723
2800,1000,0.00537940000000002,359,48.65726,35.15969
2900,1000,0.005904,404,47.44385,34.39216
3000,1000,0.0047605,390,47.20752,33.86296
3100,1000,0.00522419999999999,350,46.7323,33.41139
3200,1000,0.004552,385,46.89393,33.58851
3300,1000,0.0050863,418,46.55504,33.31682
3400,1000,0.00396209999999999,364,46.48333,33.05203
3500,1000,0.00402539999999998,385,47.82675,34.68873
3600,1000,0.00419309999999999,395,47.55933,33.90247
3700,1000,0.00442719999999999,403,47.19551,33.92187
3800,1000,0.00450569999999999,521,46.23483,32.52492
3900,1000,0.00461269999999998,397,46.03725,33.09461
4000,1000,0.00522300000000002,477,46.59806,33.49669
4100,1000,0.00569090000000002,471,47.20467,33.7982
4200,1000,0.00400779999999998,427,46.53342,33.50759
4300,1000,0.00402599999999998,439,45.76677,32.78327
4400,1000,0.0057245,586,46.88537,34.0261
4500,1000,0.0081468,710,46.27115,33.28959
4600,1000,0.00403239999999999,503,46.47685,32.69651
4700,1000,0.0044747,485,46.28484,33.2333
4800,1000,0.0054153,569,45.90639,32.9924
4900,1000,0.004762,533,47.39977,34.02707
5000,1000,0.0044599,518,47.07511,33.74279
5100,1000,0.00468929999999999,536,45.56376,32.62554
5200,1000,0.00402349999999999,510,46.74952,33.45456
5300,1000,0.00425599999999999,537,45.95546,32.54224
5400,1000,0.00399469999999998,562,45.591,32.49996
5500,1000,0.00527799999999999,612,46.24337,32.83491
5600,1000,0.00489979999999998,602,46.8263,33.37293
5700,1000,0.0040087,610,46.15411,33.18353
5800,1000,0.00445359999999999,555,46.19365,32.52006
5900,1000,0.00404959999999999,574,46.46075,33.24099
6000,1000,0.00411559999999999,582,46.32388,33.30274
6100,1000,0.00402429999999999,580,45.77699,32.58094
6200,1000,0.0048202,648,46.7731,33.52536
6300,1000,0.0043852,665,46.69483,33.6197
6400,1000,0.0050233,626,45.81522,32.85725
6500,1000,0.00425479999999999,605,46.06386,32.71885
6600,1000,0.00466489999999999,594,45.9188,32.84721
6700,1000,0.0047677,635,46.03628,32.87872
6800,1000,0.004526,699,46.47146,33.46041
6900,1000,0.00416479999999998,634,46.58249,33.41412
7000,1000,0.0053855,637,46.92948,34.00053
7100,1000,0.0042107,657,45.64256,32.71918
7200,1000,0.0048687,670,45.99665,32.72655
7300,1000,0.004684,738,45.33667,32.66032
7400,1000,0.00460050000000001,806,45.87249,32.80597
7500,1000,0.00402699999999999,695,46.04563,32.62661
7600,1000,0.00524140000000001,718,45.95396,32.48536
7700,1000,0.0047523,748,45.42829,32.7453
7800,1000,0.0048823,754,46.98494,32.97446
7900,1000,0.00494110000000001,860,47.49308,33.7184
8000,1000,0.005694,887,45.58363,32.60935
8100,1000,0.00448159999999999,762,47.11775,33.75674
8200,1000,0.0042166,736,46.28566,33.1049
8300,1000,0.0043179,750,46.43626,33.23159
8400,1000,0.00448629999999999,754,46.61202,33.13361
8500,1000,0.00548499999999999,802,46.38042,32.95864
8600,1000,0.00470260000000001,904,46.38205,33.14547
8700,1000,0.00406329999999999,769,45.27819,32.59684
8800,1000,0.0044109,786,46.23484,33.0959
8900,1000,0.00497159999999999,842,45.57259,32.64013
9000,1000,0.00519999999999999,1133,45.59579,32.24298
9100,1000,0.00403969999999999,818,47.09848,33.11709
9200,1000,0.0061175,962,45.81614,32.63363
9300,1000,0.00461999999999999,848,46.60371,33.41747
9400,1000,0.00442849999999999,854,46.96636,33.5708
9500,1000,0.00423229999999999,883,46.76904,33.37454
9600,1000,0.0045441,852,46.1786,33.02523
9700,1000,0.0047633,945,46.2236,33.33958
9800,1000,0.00422669999999999,931,47.13803,33.93407
9900,1000,0.00580780000000001,1241,47.07969,33.91372
10000,1000,0.00442139999999999,884,46.40965,33.5842
5000,10000,0.00372439999999992,478,53.23356,40.05043,15
5000,10000,0.00181358999999994,170,55.14248,40.54499,5
5000,10000,0.00209571999999982,273,55.72529,41.11203,5
5000,10000,0.00369699999999979,279,53.93617,37.92396,5
5000,10000,0.00359586999999987,272,53.83506,38.40499,5
5000,10000,0.00172704999999995,170,53.97144,38.54673,5
5000,10000,0.00167873,162,53.62631,38.26485,5
5000,10000,0.00228753999999981,315,54.74517,39.3001,5
10000,1000,0.00224939999999999,414,58.32624,40.7578,5
5000,1000,0.0021667,229,59.28202,41.7217,5
5000,1000,0.0018461,158,57.24154,40.42961,5
2000,1000,0.0011874,57,56.42303,41.43224,5
2000,1000,0.00339200000000001,174,58.50023,42.26157,15
5000,1000,0.0012028,115,57.94551,40.77694,5
5000,1000,0.002277,261,58.02355,40.94148,10
