trainingSet,testSet,predictionTime,trainingTime,accuracy0
100,1000,0.0045117,2,0.776
200,1000,0.0026973,0,0.775
300,1000,0.0022877,0,0.712
400,1000,0.0033816,0,0.716
500,1000,0.0025664,0,0.716
600,1000,0.0024654,0,0.726
700,1000,0.0024562,0,0.728
800,1000,0.0024497,0,0.728
900,1000,0.0028463,0,0.735
1000,1000,0.0024832,0,0.739
1100,1000,0.0023445,0,0.808
1200,1000,0.0034844,0,0.818
1300,1000,0.0025001,0,0.819
1400,1000,0.0023984,0,0.785
1500,1000,0.0024926,0,0.77
1600,1000,0.0026334,0,0.781
1700,1000,0.0025393,0,0.788
1800,1000,0.0029775,0,0.783
1900,1000,0.0022154,0,0.778
2000,1000,0.0040033,0,0.777
2100,1000,0.0032594,0,0.779
2200,1000,0.0023119,0,0.77
2300,1000,0.0038573,0,0.77
2400,1000,0.0024444,0,0.773
2500,1000,0.0022886,0,0.775
2600,1000,0.002856,0,0.775
2700,1000,0.0048185,0,0.79
2800,1000,0.0033454,2,0.789
2900,1000,0.0041377,2,0.787
3000,1000,0.0036955,1,0.785
3100,1000,0.004832,0,0.786
3200,1000,0.0036959,0,0.786
3300,1000,0.0023298,3,0.791
3400,1000,0.0036642,0,0.792
3500,1000,0.0037658,1,0.794
3600,1000,0.0031681,0,0.792
3700,1000,0.0039579,0,0.792
3800,1000,0.002494,0,0.794
3900,1000,0.0020964,0,0.792
4000,1000,0.0024228,0,0.794
4100,1000,0.0045886,1,0.79
4200,1000,0.0024043,1,0.787
4300,1000,0.0029489,0,0.787
4400,1000,0.0024404,1,0.79
4500,1000,0.0033205,0,0.79
4600,1000,0.0022434,0,0.788
4700,1000,0.0026205,0,0.788
4800,1000,0.0029694,0,0.791
4900,1000,0.0022524,0,0.79
5000,1000,0.0024241,0,0.793
5100,1000,0.0021866,1,0.787
5200,1000,0.0026227,0,0.792
5300,1000,0.002354,0,0.793
5400,1000,0.0026717,0,0.792
5500,1000,0.0036899,0,0.793
5600,1000,0.0021514,0,0.79
5700,1000,0.0026647,0,0.792
5800,1000,0.0023313,0,0.792
5900,1000,0.0029082,0,0.79
6000,1000,0.0026615,0,0.793
6100,1000,0.0033727,3,0.792
6200,1000,0.0037407,1,0.786
6300,1000,0.0031359,1,0.796
6400,1000,0.0031241,1,0.794
6500,1000,0.0030251,1,0.798
6600,1000,0.0027928,1,0.795
6700,1000,0.0024547,1,0.793
6800,1000,0.0025141,1,0.796
6900,1000,0.003826,1,0.797
7000,1000,0.0021945,1,0.798
7100,1000,0.0029876,1,0.797
7200,1000,0.0024944,1,0.798
7300,1000,0.0024349,1,0.799
7400,1000,0.0040654,2,0.798
7500,1000,0.0036147,1,0.798
7600,1000,0.0025734,1,0.797
7700,1000,0.0026937,1,0.797
7800,1000,0.0030832,1,0.797
7900,1000,0.0039218,1,0.798
8000,1000,0.0033642,5,0.799
8100,1000,0.0025397,1,0.797
8200,1000,0.0038953,1,0.799
8300,1000,0.0028311,1,0.799
8400,1000,0.0025673,4,0.797
8500,1000,0.0031906,1,0.796
8600,1000,0.0020171,1,0.797
8700,1000,0.0024245,1,0.798
8800,1000,0.0017695,1,0.797
8900,1000,0.0023514,1,0.796
9000,1000,0.0017637,1,0.796
9100,1000,0.0025622,1,0.796
9200,1000,0.0028919,1,0.797
9300,1000,0.0020811,1,0.797
9400,1000,0.0018649,1,0.797
9500,1000,0.0017612,1,0.797
9600,1000,0.0018395,1,0.797
9700,1000,0.001769,1,0.797
9800,1000,0.0021327,1,0.799
9900,1000,0.0017654,1,0.798
10000,1000,0.0019263,1,0.799
5000,10000,0.00199019999999977,1,0.7836
