trainingSet,testSet,predictionTime,trainingTime,accuracy
100,1000,0.0099538,0,0.735
200,1000,0.0222535,0,0.738
300,1000,0.023314,0,0.759
400,1000,0.0252163,0,0.76
500,1000,0.0385937,0,0.742
600,1000,0.0321391,0,0.748
700,1000,0.0388448,0,0.748
800,1000,0.0516625,0,0.74
900,1000,0.044833,0,0.733
1000,1000,0.0507165,0,0.75
1100,1000,0.0568661,0,0.743
1200,1000,0.0791073,0,0.762
1300,1000,0.0851138,0,0.749
1400,1000,0.0886047,0,0.768
1500,1000,0.1155002,0,0.766
1600,1000,0.1283065,0,0.753
1700,1000,0.1397838,0,0.758
1800,1000,0.1043136,0,0.758
1900,1000,0.1189543,0,0.759
2000,1000,0.1217051,0,0.767
2100,1000,0.1146426,0,0.768
2200,1000,0.1134444,0,0.77
2300,1000,0.1381222,0,0.773
2400,1000,0.1134691,0,0.761
2500,1000,0.1337288,0,0.761
2600,1000,0.1250819,0,0.767
2700,1000,0.1268479,0,0.762
2800,1000,0.4141137,0,0.767
2900,1000,0.1563621,0,0.769
3000,1000,0.1393839,0,0.771
3100,1000,0.1514323,0,0.771
3200,1000,0.1491572,0,0.767
3300,1000,0.1633923,0,0.769
3400,1000,0.1804992,0,0.773
3500,1000,0.2220191,0,0.775
3600,1000,0.1763599,0,0.777
3700,1000,0.1979147,0,0.781
3800,1000,0.1978514,0,0.781
3900,1000,0.1792929,0,0.775
4000,1000,0.2220093,0,0.782
4100,1000,0.2031177,0,0.78
4200,1000,0.2639185,0,0.78
4300,1000,0.2036485,0,0.782
4400,1000,0.2386355,0,0.773
4500,1000,0.233653,0,0.778
4600,1000,0.2296501,0,0.777
4700,1000,0.2396939,0,0.779
4800,1000,0.2481605,0,0.781
4900,1000,0.3268968,0,0.783
5000,1000,0.3035805,0,0.776
5100,1000,0.2571584,0,0.767
5200,1000,0.2442816,0,0.773
5300,1000,0.2613847,0,0.775
5400,1000,0.3904355,0,0.774
5500,1000,0.3503429,0,0.779
5600,1000,0.3425827,0,0.778
5700,1000,0.3526713,0,0.778
5800,1000,0.3571398,0,0.777
5900,1000,0.3197065,0,0.778
6000,1000,0.3531835,0,0.779
6100,1000,0.3555006,0,0.783
6200,1000,0.333955,0,0.788
6300,1000,0.4342595,0,0.789
6400,1000,0.3898911,0,0.794
6500,1000,0.4629495,0,0.792
6600,1000,0.3779087,0,0.787
6700,1000,0.3367323,0,0.787
6800,1000,0.3915005,0,0.791
6900,1000,0.3234226,0,0.79
7000,1000,0.3285709,0,0.788
7100,1000,0.3963946,0,0.788
7200,1000,0.4416352,0,0.787
7300,1000,0.4005443,0,0.792
7400,1000,0.3424316,0,0.793
7500,1000,0.3456192,0,0.788
7600,1000,0.366895,0,0.788
7700,1000,0.3738962,0,0.789
7800,1000,0.424481,0,0.788
7900,1000,0.3709341,0,0.789
8000,1000,0.4228187,0,0.789
8100,1000,0.3766515,0,0.789
8200,1000,0.3716113,0,0.785
8300,1000,0.3843827,0,0.783
8400,1000,0.4350223,0,0.781
8500,1000,0.394937,0,0.782
8600,1000,0.3985624,0,0.78
8700,1000,0.4014128,0,0.783
8800,1000,0.4611428,0,0.782
8900,1000,0.4179675,0,0.784
9000,1000,0.4199811,0,0.784
9100,1000,0.4171703,0,0.784
9200,1000,0.477095,0,0.781
9300,1000,0.4263626,0,0.783
9400,1000,0.430567,0,0.783
9500,1000,0.4929981,0,0.78
9600,1000,0.450184,0,0.779
9700,1000,0.4497546,0,0.777
9800,1000,0.4476805,0,0.778
9900,1000,0.4581605,0,0.779
10000,1000,0.4755841,0,0.777
10100,1000,0.4614622,0,0.777
10200,1000,0.4659838,0,0.779
10300,1000,0.4658088,0,0.779
10400,1000,0.511631,0,0.78
10500,1000,0.4820682,0,0.78
10600,1000,0.481417,0,0.782
10700,1000,0.5326403,0,0.776
10800,1000,0.4891789,0,0.776
10900,1000,0.4951079,0,0.783
11000,1000,0.5170616,0,0.781
11100,1000,0.5660935,0,0.784
11200,1000,0.5770396,0,0.784
11300,1000,0.5993275,0,0.783
11400,1000,0.5237484,0,0.782
11500,1000,0.5948835,0,0.782
11600,1000,0.5711765,0,0.775
11700,1000,0.5427037,0,0.781
11800,1000,0.5721664,0,0.781
11900,1000,0.548116,0,0.778
12000,1000,0.6276774,0,0.778
12100,1000,0.6172576,0,0.787
12200,1000,0.5632126,0,0.787
12300,1000,0.5911009,0,0.786
12400,1000,0.623189,0,0.786
12500,1000,0.6444476,0,0.786
12600,1000,0.5799978,0,0.785
12700,1000,0.5823652,0,0.785
12800,1000,0.6451615,0,0.784
12900,1000,0.633052,0,0.786
13000,1000,0.6612278,0,0.783
13100,1000,0.7064892,0,0.784
13200,1000,0.619938,0,0.783
13300,1000,0.6827502,0,0.784
13400,1000,0.6686958,0,0.784
13500,1000,0.6390801,0,0.784
13600,1000,0.6357138,0,0.784
13700,1000,0.6516509,0,0.782
13800,1000,0.6877818,0,0.786
13900,1000,0.6468991,0,0.786
14000,1000,0.6582067,0,0.783
14100,1000,0.661462,0,0.783
14200,1000,0.6979924,0,0.785
14300,1000,0.6686571,0,0.785
14400,1000,0.702446,0,0.785
14500,1000,0.7015751,0,0.785
14600,1000,0.6608989,0,0.785
14700,1000,0.7128872,0,0.785
14800,1000,0.6752485,0,0.785
14900,1000,0.6924141,0,0.783
15000,1000,0.7465542,0,0.783
