trainingSet,testSet,predictionTime,trainingTime,accuracy
100,1000,0.0051276,7,0.472
200,1000,0.0088596,4,0.568
300,1000,0.0109206,4,0.577
400,1000,0.0174128,7,0.586
500,1000,0.0203299,12,0.586
600,1000,0.0191939,15,0.602
700,1000,0.0298317,22,0.604
800,1000,0.0288694,26,0.607
900,1000,0.0281541,31,0.608
1000,1000,0.0319815,43,0.612
1100,1000,0.0367408,48,0.616
1200,1000,0.0387554,54,0.614
1300,1000,0.0390071,62,0.618
1400,1000,0.0440234,74,0.621
1500,1000,0.1003764,79,0.624
1600,1000,0.051363,89,0.624
1700,1000,0.0498498,102,0.624
1800,1000,0.0632426,110,0.63
1900,1000,0.0541027,122,0.631
2000,1000,0.0563045,143,0.634
2100,1000,0.0580259,140,0.637
2200,1000,0.0531885,145,0.659
2300,1000,0.0537925,143,0.619
2400,1000,0.0540518,173,0.621
2500,1000,0.0562174,169,0.62
2600,1000,0.0560645,160,0.619
2700,1000,0.0530142,168,0.619
2800,1000,0.0553176,172,0.619
2900,1000,0.0513031,169,0.547
3000,1000,0.0515874,176,0.547
3100,1000,0.0558697,186,0.549
3200,1000,0.0511141,187,0.549
3300,1000,0.048625,186,0.544
3400,1000,0.0528005,222,0.544
3500,1000,0.0475775,193,0.544
3600,1000,0.0493682,202,0.543
3700,1000,0.0520281,206,0.542
3800,1000,0.0470476,207,0.613
3900,1000,0.0470986,215,0.611
4000,1000,0.0463198,216,0.609
4100,1000,0.0932101,215,0.609
4200,1000,0.0447552,217,0.611
4300,1000,0.0458805,240,0.54
4400,1000,0.049525,248,0.604
4500,1000,0.0427634,221,0.534
4600,1000,0.0444112,230,0.534
4700,1000,0.047711,252,0.536
4800,1000,0.0951987,243,0.622
4900,1000,0.0438895,259,0.608
5000,1000,0.0408782,234,0.538
5100,1000,0.0435898,299,0.61
5200,1000,0.1106841,328,0.538
5300,1000,0.0448937,248,0.53
5400,1000,0.0377337,240,0.533
5500,1000,0.0358529,243,0.532
5600,1000,0.0411761,269,0.532
5700,1000,0.0445424,252,0.535
5800,1000,0.0401524,253,0.535
5900,1000,0.0380385,258,0.54
6000,1000,0.0385453,265,0.531
6100,1000,0.03508,248,0.535
6200,1000,0.0360705,281,0.527
6300,1000,0.0395948,299,0.527
6400,1000,0.0342349,273,0.527
6500,1000,0.0360526,261,0.529
6600,1000,0.0379942,285,0.538
6700,1000,0.0336131,269,0.528
6800,1000,0.0353443,284,0.529
6900,1000,0.0342113,282,0.529
7000,1000,0.0413155,288,0.529
7100,1000,0.0325321,312,0.59
7200,1000,0.0844559,298,0.59
7300,1000,0.0325016,304,0.524
7400,1000,0.034298,324,0.522
7500,1000,0.0323214,311,0.525
7600,1000,0.0325645,329,0.525
7700,1000,0.0380361,326,0.591
7800,1000,0.0361481,315,0.589
7900,1000,0.0365545,337,0.591
8000,1000,0.0303708,269,0.517
8100,1000,0.035282,300,0.588
8200,1000,0.0271994,327,0.587
8300,1000,0.0277867,303,0.587
8400,1000,0.0278677,271,0.587
8500,1000,0.0279496,283,0.515
8600,1000,0.0278096,287,0.597
8700,1000,0.0275581,285,0.514
8800,1000,0.0298414,315,0.519
8900,1000,0.0322098,348,0.517
9000,1000,0.0288818,318,0.517
9100,1000,0.0361823,386,0.592
9200,1000,0.0259562,306,0.52
9300,1000,0.025977,300,0.518
9400,1000,0.0276864,324,0.518
9500,1000,0.0288673,302,0.518
9600,1000,0.0290905,314,0.518
9700,1000,0.027456,305,0.518
9800,1000,0.0307023,311,0.518
9900,1000,0.0310794,305,0.518
10000,1000,0.0258326,339,0.506
10100,1000,0.0293074,308,0.506
10200,1000,0.029814,314,0.506
10300,1000,0.0270399,313,0.506
10400,1000,0.0272346,334,0.506
10500,1000,0.0259875,358,0.506
10600,1000,0.0250528,337,0.506
10700,1000,0.027872,349,0.506
10800,1000,0.0322281,402,0.506
10900,1000,0.0317682,385,0.506
11000,1000,0.0267462,392,0.503
11100,1000,0.0340677,441,0.531
11200,1000,0.0316066,487,0.533
11300,1000,0.0333764,435,0.532
11400,1000,0.0339042,441,0.532
11500,1000,0.0316372,458,0.532
11600,1000,0.0323059,450,0.532
11700,1000,0.0410874,514,0.532
11800,1000,0.0346149,494,0.532
11900,1000,0.0319485,457,0.532
12000,1000,0.0332412,444,0.588
12100,1000,0.0315816,497,0.588
12200,1000,0.0318741,497,0.588
12300,1000,0.0355836,528,0.587
12400,1000,0.0336808,511,0.584
12500,1000,0.0323111,471,0.526
12600,1000,0.0288946,405,0.522
12700,1000,0.0265885,421,0.522
12800,1000,0.0280432,425,0.517
12900,1000,0.0256174,401,0.517
13000,1000,0.0277607,401,0.517
13100,1000,0.0254427,452,0.517
13200,1000,0.0243742,393,0.512
13300,1000,0.0264653,392,0.512
13400,1000,0.0253761,419,0.513
13500,1000,0.0236245,408,0.513
13600,1000,0.0242921,405,0.512
13700,1000,0.0252943,434,0.512
13800,1000,0.0237012,412,0.512
13900,1000,0.0260872,407,0.512
14000,1000,0.0250647,420,0.512
14100,1000,0.0247167,421,0.512
14200,1000,0.0248445,422,0.512
14300,1000,0.0257214,432,0.512
14400,1000,0.023836,431,0.512
14500,1000,0.0241048,431,0.513
14600,1000,0.0257143,438,0.513
14700,1000,0.0243233,472,0.513
14800,1000,0.0263999,470,0.515
14900,1000,0.0671416,475,0.515
15000,1000,0.0263559,487,0.515
