trainingSet,testSet,predictionTime,trainingTime,RMSE0,MAE0
100,1000,0.0076519,134,5.876304,4.457569
200,1000,0.0097958,425,5.530749,4.0189
300,1000,0.0102503,580,5.728598,4.288861
400,1000,0.00981,606,5.800721,4.321635
500,1000,0.0102256,630,5.788219,4.308917
600,1000,0.0106578,677,5.732952,4.24406
700,1000,0.0097484,720,5.652376,4.153796
800,1000,0.0086356,688,5.685993,4.18457
900,1000,0.0115226,905,5.575443,4.051555
1000,1000,0.0107695,840,5.578425,4.077212
1100,1000,0.0118906,974,5.593163,4.088891
1200,1000,0.0108419,826,5.555151,4.055675
1300,1000,0.0093985,1008,5.505647,4.005604
1400,1000,0.0131866,965,5.499324,3.959451
1500,1000,0.0097329,1065,5.479726,3.900337
1600,1000,0.0112605,1070,5.490621,3.909747
1700,1000,0.0098297,1201,5.49198,3.892622
1800,1000,0.0128851,1191,5.446147,3.853279
1900,1000,0.0124764,1267,5.470246,3.898418
2000,1000,0.0118253,1323,5.490999,3.90409
2100,1000,0.0160543,1422,5.463795,3.87775
2200,1000,0.0098138,1308,5.464172,3.855643
2300,1000,0.0118023,1445,5.512085,3.896764
2400,1000,0.016139,1544,5.400177,3.794301
2500,1000,0.011193,1539,5.443345,3.868079
2600,1000,0.0145302,1529,5.432806,3.835636
2700,1000,0.0149405,1634,5.378523,3.789324
2800,1000,0.0110193,1671,5.440935,3.843067
2900,1000,0.0131756,1708,5.371711,3.775234
3000,1000,0.015364,1772,5.363706,3.741364
3100,1000,0.0120871,1802,5.401738,3.799143
3200,1000,0.0200831,1880,5.42833,3.808042
3300,1000,0.0129734,1904,5.368012,3.746712
3400,1000,0.0121459,1958,5.333778,3.724971
3500,1000,0.0101583,1985,5.352905,3.75991
3600,1000,0.0103455,2011,5.364751,3.762636
3700,1000,0.0105636,2028,5.36091,3.754575
3800,1000,0.0104041,2045,5.358932,3.749638
3900,1000,0.0104161,2073,5.381434,3.770422
4000,1000,0.0100637,2121,5.355986,3.756638
4100,1000,0.0103741,2156,5.297961,3.674007
4200,1000,0.0103795,2146,5.370286,3.795548
4300,1000,0.0103962,2226,5.342007,3.742767
4400,1000,0.0109091,2344,5.357433,3.75204
4500,1000,0.0103463,2300,5.324169,3.706328
4600,1000,0.0106884,2411,5.373243,3.765285
4700,1000,0.0102133,2392,5.337558,3.716915
4800,1000,0.0104234,2433,5.305923,3.688605
4900,1000,0.010187,2400,5.317854,3.700068
5000,1000,0.0104293,2492,5.356811,3.721584
5100,1000,0.0103214,2514,5.364677,3.742116
5200,1000,0.0112982,2768,5.340039,3.717252
5300,1000,0.010538,2633,5.306088,3.675773
5400,1000,0.0106188,2848,5.314233,3.687554
5500,1000,0.0116385,2940,5.340107,3.720444
5600,1000,0.0103774,3494,5.306215,3.680875
5700,1000,0.0104928,3461,5.304315,3.710827
5800,1000,0.010746,3536,5.358175,3.735976
5900,1000,0.0102873,3234,5.307742,3.710875
6000,1000,0.0108458,3359,5.287461,3.670923
6100,1000,0.0108892,3293,5.28596,3.68159
6200,1000,0.0107707,3491,5.334598,3.72062
6300,1000,0.0104107,4002,5.327292,3.702578
6400,1000,0.0110245,3471,5.304092,3.699819
6500,1000,0.0108172,3428,5.278632,3.668731
6600,1000,0.0109028,3479,5.276522,3.67255
6700,1000,0.0104805,3320,5.246578,3.643547
6800,1000,0.0107679,3403,5.275908,3.661541
6900,1000,0.0104745,3449,5.316543,3.71247
7000,1000,0.0106793,3804,5.296489,3.682612
7100,1000,0.010856,3729,5.298285,3.684595
7200,1000,0.0107036,3507,5.285923,3.682878
7300,1000,0.0103373,3562,5.3015,3.702897
7400,1000,0.0110881,3707,5.243925,3.63162
7500,1000,0.0104903,3692,5.25842,3.657286
7600,1000,0.012593,3892,5.286089,3.651038
7700,1000,0.0104053,3934,5.318288,3.693952
7800,1000,0.0104726,3839,5.307939,3.699955
7900,1000,0.010664,3898,5.29345,3.681486
8000,1000,0.0106608,3918,5.30378,3.682156
8100,1000,0.0109205,4054,5.315461,3.67042
8200,1000,0.0108421,4213,5.261275,3.633862
8300,1000,0.0154134,4658,5.245162,3.627824
8400,1000,0.0112322,3962,5.286071,3.676981
8500,1000,0.0105021,3935,5.34191,3.730029
8600,1000,0.0107802,4032,5.28957,3.677678
8700,1000,0.0106581,4010,5.256959,3.624666
8800,1000,0.0105515,4016,5.315945,3.700408
8900,1000,0.0110435,5033,5.291217,3.684519
9000,1000,0.0111052,4313,5.269412,3.647315
9100,1000,0.0112598,4405,5.306902,3.70153
9200,1000,0.0110746,4294,5.280499,3.659305
9300,1000,0.0110708,4515,5.274565,3.655683
9400,1000,0.024679,7435,5.272224,3.661656
9500,1000,0.0109064,4550,5.361519,3.721294
9600,1000,0.0107966,4873,5.3242,3.701577
9700,1000,0.0105443,4510,5.327258,3.70284
9800,1000,0.0110236,4568,5.331235,3.694975
9900,1000,0.0346723,4681,5.307823,3.690265
10000,1000,0.0106058,4681,5.364727,3.711778
10100,1000,0.0107159,4609,5.369446,3.726391
10200,1000,0.0147122,7409,5.313037,3.650369
10300,1000,0.010883,4636,5.311841,3.679087
10400,1000,0.0106089,5241,5.342818,3.704166
10500,1000,0.0109505,4842,5.319605,3.67767
10600,1000,0.0109119,4831,5.316635,3.674547
10700,1000,0.0107177,4930,5.332905,3.675204
10800,1000,0.0107051,4790,5.342881,3.692415
10900,1000,0.0121792,5309,5.332418,3.71058
11000,1000,0.0112554,5202,5.313698,3.673539
11100,1000,0.0106567,4870,5.383153,3.732782
11200,1000,0.0111007,4902,5.377427,3.762076
11300,1000,0.0163981,5685,5.336031,3.692372
11400,1000,0.0116207,6353,5.335944,3.686341
11500,1000,0.0111645,5040,5.354072,3.708735
11600,1000,0.0111239,5035,5.316582,3.673392
11700,1000,0.0111553,5527,5.41074,3.749433
11800,1000,0.0108011,5747,5.389026,3.744202
11900,1000,0.0190796,5628,5.380298,3.719899
12000,1000,0.010232,5689,5.361392,3.709659
12100,1000,0.0155739,5393,5.406856,3.724389
12200,1000,0.011057,5639,5.368825,3.720416
12300,1000,0.0123208,5970,5.39792,3.746712
12400,1000,0.0105353,5771,5.418843,3.741033
12500,1000,0.0106562,5556,5.37737,3.734115
12600,1000,0.0124456,5861,5.371422,3.727976
12700,1000,0.0117647,5802,5.376771,3.740462
12800,1000,0.0105647,5460,5.368984,3.735209
12900,1000,0.0105434,5546,5.402051,3.738973
13000,1000,0.0108907,5506,5.395274,3.746251
13100,1000,0.011878,5979,5.411095,3.750603
13200,1000,0.0108637,5568,5.43428,3.773128
13300,1000,0.0112297,5837,5.442778,3.790148
13400,1000,0.0103944,5751,5.414458,3.735015
13500,1000,0.0140931,6529,5.423118,3.743621
5000,5000,0.2378985,25918,5.690967,4.118757,500
