trainingSet,testSet,predictionTime,trainingTime,RMSE0,MAE0
100,1000,0.0067276,0,9.276022,7.113148
200,1000,0.0116622,0,9.365563,7.297619
300,1000,0.0155866,0,9.819254,7.683106
400,1000,0.018779,0,10.23728,8.098452
500,1000,0.0238656,0,10.03642,7.911538
600,1000,0.0284472,0,9.964815,7.853182
700,1000,0.0347959,0,10.09125,8.056742
800,1000,0.0414986,0,10.12037,8.094673
900,1000,0.0443067,0,10.00997,7.984727
1000,1000,0.0448266,0,10.26814,8.217553
1100,1000,0.0680678,0,10.09118,8.138987
1200,1000,0.053846,0,10.12247,8.188149
1300,1000,0.066494,0,9.976409,8.007445
1400,1000,0.0606449,0,9.918549,7.944096
1500,1000,0.073877,0,9.890857,7.865948
1600,1000,0.071501,0,9.865539,7.843073
1700,1000,0.0829162,0,9.777221,7.734944
1800,1000,0.0770176,0,9.785142,7.743498
1900,1000,0.092036,0,9.766914,7.767277
2000,1000,0.0954609,0,9.729502,7.745429
2100,1000,0.0935499,0,9.681984,7.675616
2200,1000,0.100715,0,9.583694,7.545758
2300,1000,0.0974877,0,9.601261,7.577605
2400,1000,0.1061666,0,9.54258,7.502615
2500,1000,0.1053785,0,9.545613,7.496615
2600,1000,0.1095146,0,9.459084,7.381107
2700,1000,0.1133885,0,9.596796,7.548696
2800,1000,0.1179943,0,9.652762,7.600622
2900,1000,0.1220422,0,9.604337,7.528013
3000,1000,0.1311528,0,9.618283,7.586445
3100,1000,0.1300085,0,9.564325,7.506938
3200,1000,0.151284,0,9.561673,7.547966
3300,1000,0.1773989,0,9.47813,7.423508
3400,1000,0.1766514,0,9.498868,7.458849
3500,1000,0.1678677,0,9.522614,7.432918
3600,1000,0.1682582,0,9.479797,7.342364
3700,1000,0.1813025,0,9.332665,7.244416
3800,1000,0.2039147,0,9.273516,7.18828
3900,1000,0.1921392,0,9.244629,7.15932
4000,1000,0.2155462,0,9.112438,7.010592
4100,1000,0.2254888,0,9.133187,7.030588
4200,1000,0.2190051,0,9.036681,6.91253
4300,1000,0.2221985,0,8.962616,6.832997
4400,1000,0.2337697,0,8.92707,6.784336
4500,1000,0.2067563,0,8.891408,6.756271
4600,1000,0.2357094,0,8.931577,6.789563
4700,1000,0.2006417,0,9.002057,6.840044
4800,1000,0.2464658,0,9.011255,6.849959
4900,1000,0.2514766,0,8.987101,6.84619
5000,1000,0.24317,0,8.925542,6.809393
5100,1000,0.2542621,0,8.951296,6.819944
5200,1000,0.2574637,0,8.872648,6.74497
5300,1000,0.2531113,0,8.878719,6.757291
5400,1000,0.2785782,0,8.868006,6.733672
5500,1000,0.3401444,0,8.757559,6.635777
5600,1000,0.2346278,0,8.697,6.571568
5700,1000,0.2499463,0,8.893161,6.680604
5800,1000,0.2954614,0,8.911215,6.701117
5900,1000,0.2938103,0,8.923473,6.699086
6000,1000,0.3052601,0,8.871344,6.661913
6100,1000,0.2962661,0,8.909544,6.672325
6200,1000,0.2905197,0,8.798462,6.591543
6300,1000,0.2873912,0,8.770009,6.568794
6400,1000,0.2679137,0,8.731347,6.544341
6500,1000,0.2837384,0,8.788992,6.625915
6600,1000,0.2891028,0,8.73212,6.570931
6700,1000,0.2915539,0,8.754075,6.621371
6800,1000,0.2965688,0,8.779853,6.643544
6900,1000,0.3273815,0,8.742302,6.633351
7000,1000,0.3677996,0,8.677104,6.57317
7100,1000,0.3034277,0,8.641009,6.549637
7200,1000,0.3025024,0,8.629601,6.534059
7300,1000,0.3101671,0,8.614613,6.530325
7400,1000,0.3074065,0,8.632957,6.55934
7500,1000,0.313521,0,8.660398,6.579024
7600,1000,0.3281277,0,8.623362,6.542848
7700,1000,0.3224173,0,8.662231,6.566648
7800,1000,0.3288124,0,8.592606,6.519728
7900,1000,0.3265503,0,8.571142,6.490464
8000,1000,0.3317813,0,8.512272,6.408246
8100,1000,0.3642219,0,8.524153,6.413675
8200,1000,0.4092393,0,8.558509,6.458661
8300,1000,0.3563784,0,8.517857,6.433732
8400,1000,0.3477176,0,8.522066,6.445109
8500,1000,0.3538619,0,8.4305,6.364349
8600,1000,0.3569648,0,8.433534,6.361547
8700,1000,0.3617086,0,8.4313,6.365331
8800,1000,0.3706303,0,8.469388,6.386962
8900,1000,0.3844205,0,8.488806,6.411317
9000,1000,0.3733389,0,8.49945,6.428749
9100,1000,0.3810848,0,8.519828,6.439203
9200,1000,0.3834812,0,8.552124,6.468151
9300,1000,0.5923689,0,8.622791,6.504327
9400,1000,0.4177954,0,8.54338,6.4479
9500,1000,0.4052999,0,8.567684,6.47138
9600,1000,0.3982843,0,8.423489,6.375979
9700,1000,0.399724,0,8.75761,6.53315
9800,1000,0.4158513,0,8.704342,6.464255
9900,1000,0.4212134,0,8.272015,6.170398
10000,1000,0.4186053,0,8.294077,6.209871
10100,1000,0.7356106,0,8.269234,6.168264
10200,1000,0.4234391,0,8.303328,6.175141
10300,1000,0.4273775,0,8.310483,6.164581
10400,1000,0.6474815,0,8.344388,6.1847
10500,1000,0.441652,0,8.363718,6.188566
10600,1000,0.4412511,0,8.274659,6.084572
10700,1000,0.4434877,0,8.364096,6.156292
10800,1000,0.4566648,0,8.364872,6.163454
10900,1000,0.4526819,0,8.300151,6.146315
11000,1000,0.4617824,0,8.217294,6.04047
11100,1000,0.4572531,0,8.12081,5.943079
11200,1000,0.5284629,0,8.143254,5.982951
11300,1000,0.7074759,0,8.141958,5.992712
11400,1000,0.4794014,0,8.16772,6.019395
11500,1000,0.4799946,0,8.18317,6.026752
11600,1000,0.4818633,0,8.209301,6.012176
11700,1000,0.5039358,0,8.187456,5.985744
11800,1000,0.4974446,0,8.064013,5.899212
11900,1000,0.4939091,0,8.221591,6.007552
12000,1000,0.497856,0,8.394453,6.170812
12100,1000,0.5012171,0,8.394952,6.158835
12200,1000,0.9096352,0,8.432852,6.194663
12300,1000,0.520577,0,8.362565,6.122679
12400,1000,0.5110264,0,8.393779,6.121935
12500,1000,0.5222409,0,8.442385,6.179484
12600,1000,0.7929889,0,8.521693,6.231058
12700,1000,0.5270073,0,8.561284,6.265849
12800,1000,0.5278387,0,8.645716,6.325884
12900,1000,0.5343093,0,8.618425,6.315187
13000,1000,0.5517259,0,8.608778,6.313562
13100,1000,0.5552011,0,8.572933,6.283392
13200,1000,0.5491695,0,8.610363,6.321158
13300,1000,0.5494898,0,8.642594,6.367982
13400,1000,0.5537024,0,8.614813,6.340953
13500,1000,0.7767562,0,8.598975,6.328539
13500,1000,0.7126705,0,8.598975,6.328539
13600,1000,0.5944093,0,8.601076,6.333247
13700,1000,0.6118018,0,8.58619,6.313828
13800,1000,0.6135784,0,8.608862,6.346105
13900,1000,0.6263891,0,8.632104,6.340827
14000,1000,0.6154726,0,8.664677,6.370541
14100,1000,0.6100331,0,8.695415,6.416816
14200,1000,0.6605461,0,8.712497,6.417615
14300,1000,0.6274022,0,8.717059,6.411851
14400,1000,0.6390444,0,8.69338,6.346972
14500,1000,0.6274268,0,8.655159,6.317864
14600,1000,0.6312265,0,8.668569,6.331007
14700,1000,0.6529881,0,8.682148,6.373765
14800,1000,0.6402452,0,8.693759,6.378159
14900,1000,0.6488234,0,8.715748,6.395954
15000,1000,0.7251668,0,8.717607,6.404343
5000,10000,0.22765378,0,9.267959,6.964799
5000,5000,0.22488958,0,8.72343,6.329142
