100,1000,0.0080161,63,29.78484,25.5621950
200,1000,0.00903119999999999,179,28.80757,24.569350
300,1000,0.0102097,310,28.4187,24.8344550
400,1000,0.00984889999999999,400,28.79836,25.2425150
500,1000,0.0098555,496,28.43537,25.077250
600,1000,0.0130785,626,28.31573,24.5164150
700,1000,0.0123319,721,28.10783,24.0705950
800,1000,0.0136918,657,28.04278,24.1082950
900,1000,0.0102662,681,27.78866,23.7486650
1000,1000,0.0118982,780,27.48373,23.3617750
1100,1000,0.0111082,1266,27.68349,23.7184950
1200,1000,0.0105953,846,27.56878,23.5420150
1300,1000,0.0114671,954,27.5004,23.3807850
1400,1000,0.0103301,973,27.45299,23.3015150
1500,1000,0.011412,1084,27.74673,23.6946150
1600,1000,0.0109221,1128,27.57659,23.3643150
1700,1000,0.0137031,1204,27.48566,23.4245750
1800,1000,0.0129165,1296,27.41306,23.4048650
1900,1000,0.0135029,1315,27.38267,23.4717450
2000,1000,0.0144889,1448,27.25838,23.2964850
2100,1000,0.013165,1396,27.33955,23.3244950
2200,1000,0.0132393,1469,27.22257,23.2136850
2300,1000,0.015204,1650,27.38365,23.3059350
2400,1000,0.0138379,1626,27.12734,23.0463550
2500,1000,0.0145841,1485,27.02464,22.8467550
2600,1000,0.0163519,1782,27.09573,22.9987250
2700,1000,0.0122052,1892,27.22071,23.0955850
2800,1000,0.0131026,1719,27.07448,22.8885450
2900,1000,0.0144501,1713,27.06497,22.8871950
3000,1000,0.0134154,1773,27.13984,22.8561250
3100,1000,0.018666,1841,26.96575,22.8349150
3200,1000,0.0126658,1913,27.06944,22.8691650
3300,1000,0.0129759,2180,27.01915,22.8152250
3400,1000,0.0132608,1958,27.15333,22.9216950
3500,1000,0.0122959,2008,27.11915,22.8875650
3600,1000,0.013431,2047,26.99798,22.7073650
3700,1000,0.0129681,2120,26.70767,22.3299250
3800,1000,0.0138932,2390,27.10779,22.9098550
3900,1000,0.0132855,2188,27.07923,22.7844450
4000,1000,0.0156971,2489,27.21228,22.9247150
4100,1000,0.0195038,2743,27.13488,22.6982150
4200,1000,0.020556,2587,27.07539,22.7639250
4300,1000,0.018936,2932,26.92463,22.5658550
4400,1000,0.0190825,3089,26.9541,22.6023350
4500,1000,0.015959,2991,27.00776,22.6304550
4600,1000,0.0208382,4292,26.7829,22.3796150
4700,1000,0.0119476,2774,26.93203,22.6613250
4800,1000,0.0181636,2674,26.87389,22.4912950
4900,1000,0.0126481,2655,26.89152,22.6277450
5000,1000,0.0140015,2732,26.97685,22.5285950
5100,1000,0.0241519,3642,26.90115,22.5403750
5200,1000,0.0154443,3746,26.71597,22.1725450
5300,1000,0.013958,2983,26.77693,22.4179650
5400,1000,0.013272,2958,26.74943,22.2812250
5500,1000,0.0122294,2890,26.71557,22.2302950
5600,1000,0.0143697,2959,26.66108,22.2148150
5700,1000,0.0175886,3444,26.83269,22.3241550
5800,1000,0.0251152,3562,26.77367,22.2260950
5900,1000,0.0147142,3486,26.69864,22.2666850
6000,1000,0.0134057,3284,26.8494,22.3942950
6100,1000,0.0140422,3561,26.75213,22.366150
6200,1000,0.0159787,3692,26.6472,22.1302550
6300,1000,0.0137686,3398,26.71291,22.2605350
6400,1000,0.0194792,3807,26.77996,22.24350
6500,1000,0.0131413,4071,26.84291,22.347250
6600,1000,0.0186321,3893,26.57716,22.0325850
6700,1000,0.0158601,3635,26.66827,22.1023650
6800,1000,0.012546,4062,26.72332,22.1343250
6900,1000,0.0137322,3446,26.80173,22.3337750
7000,1000,0.0137536,3670,26.47162,21.9120350
7100,1000,0.0160619,3707,26.66536,22.1249250
7200,1000,0.0131543,3716,26.70844,22.1838650
7300,1000,0.0150277,3754,26.67068,22.1441350
7400,1000,0.0357359,3927,26.65613,22.173450
7500,1000,0.0193182,3934,26.60287,22.0760750
7600,1000,0.0142837,4315,26.59319,22.0615850
7700,1000,0.013327,4754,26.81023,22.3906250
7800,1000,0.0140956,4183,26.61744,22.0916650
7900,1000,0.0137159,3913,26.69914,22.1761950
8000,1000,0.0137941,4061,26.62246,22.0806850
8100,1000,0.0133832,4006,26.83929,22.3461750
8200,1000,0.0136238,4162,26.59271,22.0985550
8300,1000,0.0138066,4154,26.61736,22.0305750
8400,1000,0.0129812,4193,26.7048,22.2500450
8500,1000,0.0165804,4279,26.42298,21.8162650
8600,1000,0.0147385,4206,26.8688,22.3724350
8700,1000,0.0125054,4372,26.57888,22.0362250
8800,1000,0.0154008,5339,26.55644,21.9339750
8900,1000,0.0132559,4347,26.80285,22.3044350
9000,1000,0.0137716,4248,26.8102,22.3074950
9100,1000,0.0136514,4452,26.79169,22.3820650
9200,1000,0.0144802,4641,26.70586,22.2019950
9300,1000,0.0133783,4576,26.63386,22.0723650
9400,1000,0.0158308,4893,26.66339,22.2908350
9500,1000,0.0143613,4768,26.52441,21.979250
9600,1000,0.0149573,4664,26.59467,22.1571950
9700,1000,0.0180981,5166,26.81904,22.3883550
9800,1000,0.013703,4808,26.84429,22.3401550
9900,1000,0.0129677,4683,26.99888,22.6349250
10000,1000,0.0137827,4870,26.90818,22.4534750
