100,1000,0.0457411000000001,2,40.87287,25.523
200,1000,0.00242959999999998,3,36.15583,20.18553
300,1000,0.00248310000000001,3,33.94433,18.62515
400,1000,0.00468610000000002,10,34.49295,19.73392
500,1000,0.00284159999999997,6,34.9313,19.61853
600,1000,0.002742,7,35.20726,20.30268
700,1000,0.00206600000000001,10,32.71589,19.91722
800,1000,0.0024679,9,33.72999,19.2784
900,1000,0.00273669999999998,9,31.22588,18.26248
1000,1000,0.00245479999999999,11,31.72626,18.71517
1100,1000,0.00323250000000001,15,31.15046,18.94614
1200,1000,0.00291539999999997,12,29.48485,18.01812
1300,1000,0.00271699999999997,15,29.80956,18.21648
1400,1000,0.0024691,14,32.48251,19.34277
1500,1000,0.0024232,17,30.14808,17.97235
1600,1000,0.00275360000000001,17,29.07693,17.72108
1700,1000,0.0021172,16,29.95893,18.1586
1800,1000,0.00308669999999999,18,30.54077,18.91688
1900,1000,0.00295529999999999,25,28.97343,17.94897
2000,1000,0.0026485,19,29.90901,18.32234
2100,1000,0.00303060000000001,20,28.55988,18.03922
2200,1000,0.00269979999999998,21,28.78016,17.71206
2300,1000,0.00369749999999999,25,29.9077,18.51889
2400,1000,0.00429350000000001,28,28.91351,18.27085
2500,1000,0.00225820000000001,22,29.30594,18.42635
2600,1000,0.00318600000000001,30,27.97245,17.33103
2700,1000,0.00230419999999999,24,28.57114,17.71556
2800,1000,0.00285779999999997,24,28.13642,17.43192
2900,1000,0.0023534,27,28.36129,17.31891
3000,1000,0.00267869999999999,25,27.74238,17.14955
3100,1000,0.00266629999999999,28,28.77972,17.63663
3200,1000,0.00278429999999999,33,28.6498,17.57553
3300,1000,0.00294339999999998,36,27.1876,17.25702
3400,1000,0.00487040000000002,40,28.62735,17.88722
3500,1000,0.00255549999999999,29,27.59665,17.37245
3600,1000,0.0029122,28,26.24702,16.83599
3700,1000,0.0036514,28,26.67647,17.17711
3800,1000,0.003687,40,26.54902,17.13231
3900,1000,0.0023168,31,27.17001,17.56852
4000,1000,0.00278419999999999,36,26.88042,17.46157
4100,1000,0.00409099999999999,37,27.65625,17.78314
4200,1000,0.00391069999999999,34,26.1901,16.60073
4300,1000,0.0039816,33,26.19123,16.51735
4400,1000,0.00332529999999999,33,26.94516,17.31371
4500,1000,0.00373460000000001,39,27.48347,17.28414
4600,1000,0.0032213,54,26.4271,16.71105
4700,1000,0.0042624,45,26.43827,16.89976
4800,1000,0.00261239999999999,35,26.4166,16.88631
4900,1000,0.0035371,41,26.1107,16.71287
5000,1000,0.00246529999999999,37,26.4946,17.06918
5100,1000,0.0026958,38,26.06644,16.72771
5200,1000,0.0042673,43,25.7125,16.44389
5300,1000,0.00253709999999998,40,25.74949,16.41057
5400,1000,0.00244199999999998,39,26.0839,16.57358
5500,1000,0.00435790000000001,66,25.55459,16.24619
5600,1000,0.0021869,42,25.8706,16.72278
5700,1000,0.00252209999999999,42,25.69173,16.67031
5800,1000,0.0033064,42,26.51923,16.96106
5900,1000,0.00291439999999999,59,26.58475,17.17219
6000,1000,0.0024391,46,26.14647,16.95679
6100,1000,0.00326729999999999,50,25.82887,16.80663
6200,1000,0.00382349999999998,62,26.07988,16.93398
6300,1000,0.00255749999999999,48,25.73661,16.71291
6400,1000,0.00381660000000001,47,27.7294,17.73074
6500,1000,0.004268,91,26.69256,17.14123
6600,1000,0.0025387,47,26.45639,17.07364
6700,1000,0.00477620000000001,59,26.15679,17.03418
6800,1000,0.0021849,49,25.97132,16.82458
6900,1000,0.00247399999999999,47,25.51756,16.76218
7000,1000,0.00292349999999999,49,26.4585,16.81258
7100,1000,0.0032685,81,26.61822,17.16352
7200,1000,0.002589,52,26.41261,16.95967
7300,1000,0.00246739999999997,58,27.11737,17.45408
7400,1000,0.00390120000000003,52,26.24955,17.07757
7500,1000,0.00254499999999998,55,26.67316,16.88844
7600,1000,0.0030947,54,26.18378,16.94052
7700,1000,0.0026325,61,25.97224,16.86414
7800,1000,0.00340240000000002,52,25.96187,16.81829
7900,1000,0.002227,57,25.94461,16.79949
8000,1000,0.00251830000000001,59,25.65692,16.89885
8100,1000,0.00256669999999999,55,26.04601,16.83334
8200,1000,0.00279029999999997,56,25.9858,16.8274
8300,1000,0.00262099999999999,57,25.84534,16.81934
8400,1000,0.00283869999999999,55,25.91715,16.97893
8500,1000,0.00425300000000001,72,26.0254,16.95544
8600,1000,0.00327069999999999,72,26.18136,16.92031
8700,1000,0.00287149999999998,55,25.79257,16.84891
8800,1000,0.00799270000000001,92,25.95618,17.02711
8900,1000,0.0029443,56,25.90427,17.07761
9000,1000,0.00299759999999996,61,25.95322,17.2665
9100,1000,0.0022636,60,25.96554,17.29219
9200,1000,0.00274279999999998,58,25.70945,16.78465
9300,1000,0.00274890000000001,60,26.02223,17.11548
9400,1000,0.00261209999999998,62,26.10374,16.98149
9500,1000,0.0030565,63,26.18373,17.09559
9600,1000,0.00256920000000001,65,26.50814,17.54536
9700,1000,0.00261269999999998,60,26.20115,17.2442
9800,1000,0.00380220000000001,60,25.92968,17.22503
9900,1000,0.00282739999999998,76,26.79208,17.6562
10000,1000,0.0029223,65,25.11319,16.56809
