trainingSet,testSet,predictionTime,trainingTime,accuracy
100,1000,0.0082725,18,0.7765
200,1000,0.0107075,28,0.8215
300,1000,0.0108684,50,0.8235
400,1000,0.0125317,84,0.835
500,1000,0.0128835,97,0.8365
600,1000,0.0123037,118,0.8435
700,1000,0.0128476,152,0.8485
800,1000,0.0129613,166,0.8545
900,1000,0.0138844,191,0.8495
1000,1000,0.0100168,142,0.8565
1100,1000,0.0120708,174,0.8545
1200,1000,0.0106523,173,0.8385
1300,1000,0.0104377,211,0.8465
1400,1000,0.0213219,362,0.8495
1500,1000,0.0225248,332,0.8415
1600,1000,0.0125417,311,0.8475
1700,1000,0.0171387,367,0.8425
1800,1000,0.0153518,329,0.8385
1900,1000,0.0142058,313,0.8455
2000,1000,0.0178542,339,0.8395
2100,1000,0.013296,375,0.8465
2200,1000,0.0135135,349,0.8495
2300,1000,0.0132377,388,0.8475
2400,1000,0.0163866,405,0.8465
2500,1000,0.0115932,420,0.8515
2600,1000,0.0163667,462,0.8535
2700,1000,0.0106569,525,0.8435
2800,1000,0.0248749,1045,0.8445
2900,1000,0.0633441,732,0.8525
3000,1000,0.0170756,659,0.855
3100,1000,0.0117888,546,0.8485
3200,1000,0.0119536,524,0.8555
3300,1000,0.0201852,529,0.8475
3400,1000,0.0113505,639,0.8525
3500,1000,0.0149959,647,0.8575
3600,1000,0.0119115,571,0.8555
3700,1000,0.0119352,533,0.8545
3800,1000,0.0131833,529,0.8535
3900,1000,0.011877,569,0.8535
4000,1000,0.0120999,671,0.8525
4100,1000,0.0155897,674,0.8545
4200,1000,0.0117282,758,0.8515
4300,1000,0.0155328,809,0.8555
4400,1000,0.0205216,836,0.8485
4500,1000,0.0107521,827,0.8545
4600,1000,0.0125579,672,0.8515
4700,1000,0.012331,672,0.8525
4800,1000,0.0124706,686,0.8475
4900,1000,0.0129832,719,0.8515
5000,1000,0.0115797,700,0.8515
5100,1000,0.0123964,711,0.8475
5200,1000,0.0126149,723,0.8455
5300,1000,0.0138738,760,0.8435
5400,1000,0.0182177,832,0.8495
5500,1000,0.0153866,768,0.8485
5600,1000,0.0192803,873,0.8395
5700,1000,0.0152064,883,0.8435
5800,1000,0.0220567,833,0.8485
5900,1000,0.0113052,804,0.8485
6000,1000,0.0117074,771,0.8545
6100,1000,0.0142016,939,0.8495
6200,1000,0.025356,1164,0.8495
6300,1000,0.0168324,1026,0.8445
6400,1000,0.0236398,1023,0.8495
6500,1000,0.0192193,1097,0.8445
6600,1000,0.0144607,1115,0.8445
6700,1000,0.0166597,1054,0.8535
6800,1000,0.0145874,1154,0.8465
6900,1000,0.0153936,1158,0.8475
7000,1000,0.0117362,1230,0.8455
7100,1000,0.0198032,1095,0.8475
7200,1000,0.0136246,1161,0.855
7300,1000,0.0126807,1167,0.8465
7400,1000,0.0123904,1206,0.8465
7500,1000,0.0126878,1228,0.8465
7600,1000,0.0111138,1184,0.8425
7700,1000,0.015001,1346,0.845
7800,1000,0.0199963,1296,0.8495
7900,1000,0.0228705,1454,0.8465
8000,1000,0.0122717,1483,0.8445
8100,1000,0.0138739,1236,0.855
8200,1000,0.0170818,1285,0.8565
8300,1000,0.0163129,1413,0.8545
8400,1000,0.0154863,1436,0.8495
8500,1000,0.0146022,1407,0.8445
8600,1000,0.0135629,1355,0.8475
8700,1000,0.0170937,1421,0.8495
8800,1000,0.0100472,1053,0.8425
8900,1000,0.0097398,1078,0.8485
9000,1000,0.0116736,1072,0.8425
9100,1000,0.0101682,1137,0.8475
9200,1000,0.0114413,1169,0.8455
9300,1000,0.01081,1201,0.8515
9400,1000,0.0099709,1083,0.8475
9500,1000,0.0102139,1091,0.855
9600,1000,0.0092311,1114,0.8475
9700,1000,0.0106357,1133,0.8455
9800,1000,0.0094094,1119,0.8535
9900,1000,0.0093315,1143,0.855
10000,1000,0.0093083,1157,0.8475
