\relax 
\providecommand\hyper@newdestlabel[2]{}
\newlabel{memcomponents}{{1}{61}{Component Memory Usage in Bytes\relax }{table.caption.52}{}}
\newlabel{}{{2}{62}{The convergence of the various algorithms predicting \texttt {didSurvive}, using \texttt {fvector\textunderscore v1}. A test set size of 1000 was used.\relax }{figure.caption.53}{}}
\newlabel{}{{3}{63}{The convergence of the various algorithms predicting \texttt {didSurvive}, using \texttt {fvector\textunderscore v2}. A test set size of 1000 was used.\relax }{figure.caption.54}{}}
\newlabel{speedapp1}{{4}{64}{The prediction speed of the various algorithms predicting \texttt {didSurvive}, using \texttt {fvector\textunderscore v2}. A test set size of 1000 was used.\relax }{figure.caption.55}{}}
\newlabel{}{{5}{65}{The convergence of the various algorithms predicting \texttt {duration}, using \texttt {fvector\textunderscore v1}. A test set size of 1000 was used.\relax }{figure.caption.56}{}}
\newlabel{speedapp2}{{8}{67}{The prediction speed of the various algorithms predicting \texttt {duration}, using \texttt {fvector\textunderscore v2}. A test set size of 1000 was used.\relax }{figure.caption.58}{}}
\newlabel{}{{9}{68}{The convergence of the various algorithms predicting \texttt {xpGain}, using \texttt {fvector\textunderscore v2}. A test set size of 1000 was used.\relax }{figure.caption.59}{}}
\newlabel{}{{10}{69}{The convergence of the various algorithms predicting \texttt {hpLoss}, using \texttt {fvector\textunderscore v2}. A test set size of 1000 was used.\relax }{figure.caption.60}{}}
\@setckpt{appendix1}{
\setcounter{page}{70}
\setcounter{equation}{0}
\setcounter{enumi}{3}
\setcounter{enumii}{0}
\setcounter{enumiii}{0}
\setcounter{enumiv}{0}
\setcounter{footnote}{0}
\setcounter{mpfootnote}{0}
\setcounter{part}{0}
\setcounter{chapter}{0}
\setcounter{section}{0}
\setcounter{subsection}{0}
\setcounter{subsubsection}{0}
\setcounter{paragraph}{0}
\setcounter{subparagraph}{0}
\setcounter{figure}{10}
\setcounter{table}{1}
\setcounter{lstnumber}{2}
\setcounter{ContinuedFloat}{0}
\setcounter{subfigure}{0}
\setcounter{subtable}{0}
\setcounter{parentequation}{0}
\setcounter{AlgoLine}{0}
\setcounter{algocfline}{1}
\setcounter{algocfproc}{1}
\setcounter{algocf}{1}
\setcounter{Item}{3}
\setcounter{Hfootnote}{2}
\setcounter{bookmark@seq@number}{42}
\setcounter{lstlisting}{0}
\setcounter{section@level}{1}
}
