\relax 
\@writefile{lof}{\contentsline {figure}{\numberline {1}{\ignorespaces \relax }}{58}}
\newlabel{}{{1}{58}}
\@writefile{lof}{\contentsline {figure}{\numberline {2}{\ignorespaces \relax }}{59}}
\newlabel{}{{2}{59}}
\@writefile{lof}{\contentsline {figure}{\numberline {3}{\ignorespaces \relax }}{60}}
\newlabel{}{{3}{60}}
\@writefile{lof}{\contentsline {figure}{\numberline {4}{\ignorespaces \relax }}{61}}
\newlabel{}{{4}{61}}
\@writefile{lof}{\contentsline {figure}{\numberline {5}{\ignorespaces \relax }}{62}}
\newlabel{}{{5}{62}}
\@writefile{lof}{\contentsline {figure}{\numberline {6}{\ignorespaces \relax }}{63}}
\newlabel{}{{6}{63}}
\@writefile{lof}{\contentsline {figure}{\numberline {7}{\ignorespaces \relax }}{64}}
\newlabel{}{{7}{64}}
\@writefile{lof}{\contentsline {figure}{\numberline {8}{\ignorespaces \relax }}{65}}
\newlabel{}{{8}{65}}
\@setckpt{appendix2}{
\setcounter{page}{66}
\setcounter{equation}{0}
\setcounter{enumi}{3}
\setcounter{enumii}{0}
\setcounter{enumiii}{0}
\setcounter{enumiv}{0}
\setcounter{footnote}{0}
\setcounter{mpfootnote}{0}
\setcounter{part}{0}
\setcounter{chapter}{0}
\setcounter{section}{0}
\setcounter{subsection}{0}
\setcounter{subsubsection}{0}
\setcounter{paragraph}{0}
\setcounter{subparagraph}{0}
\setcounter{figure}{8}
\setcounter{table}{1}
\setcounter{lstnumber}{2}
\setcounter{ContinuedFloat}{0}
\setcounter{subfigure}{0}
\setcounter{subtable}{0}
\setcounter{parentequation}{0}
\setcounter{AlgoLine}{0}
\setcounter{algocfline}{1}
\setcounter{algocfproc}{1}
\setcounter{algocf}{1}
\setcounter{lstlisting}{0}
}
