\relax 
\providecommand\hyper@newdestlabel[2]{}
\citation{A-Lif80:online}
\@writefile{toc}{\contentsline {chapter}{Chapter{} \numberline {3}Design}{18}{chapter.3}}
\@writefile{lof}{\addvspace {10\p@ }}
\@writefile{lot}{\addvspace {10\p@ }}
\@writefile{loa}{\addvspace {10\p@ }}
\@writefile{toc}{\contentsline {section}{\numberline {3.1}Introduction}{18}{section.3.1}}
\@writefile{lof}{\contentsline {figure}{\numberline {3.1}{\ignorespaces Off-screen logic\relax }}{19}{figure.caption.18}}
\newlabel{proxylogic}{{3.1}{19}{Off-screen logic\relax }{figure.caption.18}{}}
\citation{Brom2007}
\@writefile{toc}{\contentsline {section}{\numberline {3.2}Architecture Overview}{20}{section.3.2}}
\@writefile{toc}{\contentsline {subsection}{\numberline {3.2.1}LOD system}{20}{subsection.3.2.1}}
\@writefile{lof}{\contentsline {figure}{\numberline {3.2}{\ignorespaces The Encounter System for two levels of detail\relax }}{21}{figure.caption.19}}
\newlabel{makeshift}{{3.2}{21}{The Encounter System for two levels of detail\relax }{figure.caption.19}{}}
\@writefile{loa}{\contentsline {algocf}{\numberline {1}{\ignorespaces Encounter resolution\relax }}{23}{algocf.1}}
\newlabel{alg:encounter}{{1}{23}{LOD system}{algocf.1}{}}
\@writefile{lof}{\contentsline {figure}{\numberline {3.3}{\ignorespaces How the LOD levels interact with the Machine Learning Module\relax }}{24}{figure.caption.21}}
\newlabel{dataflow}{{3.3}{24}{How the LOD levels interact with the Machine Learning Module\relax }{figure.caption.21}{}}
\@writefile{toc}{\contentsline {subsection}{\numberline {3.2.2}Machine Learning}{24}{subsection.3.2.2}}
\@writefile{toc}{\contentsline {subsubsection}{Sampling}{24}{section*.20}}
\@writefile{toc}{\contentsline {subsubsection}{Feature Selection}{25}{section*.22}}
\@writefile{toc}{\contentsline {subsubsection}{Target Variables}{25}{section*.23}}
\@writefile{toc}{\contentsline {subsubsection}{Preparing the data}{26}{section*.24}}
\@writefile{toc}{\contentsline {subsubsection}{Learning}{27}{section*.25}}
\@writefile{toc}{\contentsline {section}{\numberline {3.3}Summary}{27}{section.3.3}}
\@setckpt{chapter3}{
\setcounter{page}{28}
\setcounter{equation}{3}
\setcounter{enumi}{3}
\setcounter{enumii}{0}
\setcounter{enumiii}{0}
\setcounter{enumiv}{0}
\setcounter{footnote}{2}
\setcounter{mpfootnote}{0}
\setcounter{part}{0}
\setcounter{chapter}{3}
\setcounter{section}{3}
\setcounter{subsection}{0}
\setcounter{subsubsection}{0}
\setcounter{paragraph}{0}
\setcounter{subparagraph}{0}
\setcounter{figure}{3}
\setcounter{table}{0}
\setcounter{lstnumber}{1}
\setcounter{ContinuedFloat}{0}
\setcounter{subfigure}{0}
\setcounter{subtable}{0}
\setcounter{parentequation}{0}
\setcounter{AlgoLine}{0}
\setcounter{algocfline}{1}
\setcounter{algocfproc}{1}
\setcounter{algocf}{1}
\setcounter{Item}{3}
\setcounter{Hfootnote}{2}
\setcounter{bookmark@seq@number}{22}
\setcounter{lstlisting}{0}
\setcounter{section@level}{1}
}
