\relax 
\providecommand\hyper@newdestlabel[2]{}
\@writefile{toc}{\contentsline {chapter}{Chapter{} \numberline {6}Conclusion}{56}{chapter.6}}
\@writefile{lof}{\addvspace {10\p@ }}
\@writefile{lot}{\addvspace {10\p@ }}
\@writefile{loa}{\addvspace {10\p@ }}
\@writefile{toc}{\contentsline {section}{\numberline {6.1}Main Contributions}{56}{section.6.1}}
\@writefile{lof}{\contentsline {figure}{\numberline {6.1}{\ignorespaces The system simulating 2500 agents at the proxy LOD, with visualisation.\relax }}{57}{figure.caption.50}}
\newlabel{battle}{{6.1}{57}{The system simulating 2500 agents at the proxy LOD, with visualisation.\relax }{figure.caption.50}{}}
\@writefile{toc}{\contentsline {section}{\numberline {6.2}Future Work}{57}{section.6.2}}
\citation{Middl39:online}
\citation{Middl66:online}
\@writefile{toc}{\contentsline {section}{\numberline {6.3}Final Thoughts}{59}{section.6.3}}
\@setckpt{chapter6}{
\setcounter{page}{60}
\setcounter{equation}{0}
\setcounter{enumi}{3}
\setcounter{enumii}{0}
\setcounter{enumiii}{0}
\setcounter{enumiv}{0}
\setcounter{footnote}{0}
\setcounter{mpfootnote}{0}
\setcounter{part}{0}
\setcounter{chapter}{6}
\setcounter{section}{3}
\setcounter{subsection}{0}
\setcounter{subsubsection}{0}
\setcounter{paragraph}{0}
\setcounter{subparagraph}{0}
\setcounter{figure}{1}
\setcounter{table}{0}
\setcounter{lstnumber}{2}
\setcounter{ContinuedFloat}{0}
\setcounter{subfigure}{0}
\setcounter{subtable}{0}
\setcounter{parentequation}{0}
\setcounter{AlgoLine}{0}
\setcounter{algocfline}{1}
\setcounter{algocfproc}{1}
\setcounter{algocf}{1}
\setcounter{Item}{3}
\setcounter{Hfootnote}{2}
\setcounter{bookmark@seq@number}{41}
\setcounter{lstlisting}{0}
\setcounter{section@level}{1}
}
