\relax 
\providecommand\hyper@newdestlabel[2]{}
\citation{OpenM79}
\citation{OpenX28}
\citation{mulally2014anemotional}
\citation{mcnulty2014residual}
\citation{Modul49:online}
\@writefile{toc}{\contentsline {chapter}{Chapter{} \numberline {4}Implementation}{28}{chapter.4}}
\@writefile{lof}{\addvspace {10\p@ }}
\@writefile{lot}{\addvspace {10\p@ }}
\@writefile{loa}{\addvspace {10\p@ }}
\@writefile{toc}{\contentsline {section}{\numberline {4.1}Platform Selection}{28}{section.4.1}}
\citation{quinlan1986induction}
\citation{breiman1984classification}
\citation{OpenC86:online}
\citation{EmguC64:online}
\citation{Machi50:online}
\@writefile{lof}{\contentsline {figure}{\numberline {4.1}{\ignorespaces Demo scene from Modular RPG Combat Kit\relax }}{29}{figure.caption.26}}
\newlabel{redvsblue}{{4.1}{29}{Demo scene from Modular RPG Combat Kit\relax }{figure.caption.26}{}}
\@writefile{lof}{\contentsline {figure}{\numberline {4.2}{\ignorespaces System Architecture\relax }}{30}{figure.caption.27}}
\newlabel{fig:block}{{4.2}{30}{System Architecture\relax }{figure.caption.27}{}}
\@writefile{toc}{\contentsline {section}{\numberline {4.2}Implementing the System}{31}{section.4.2}}
\@writefile{toc}{\contentsline {subsection}{\numberline {4.2.1}Overview}{31}{subsection.4.2.1}}
\@writefile{toc}{\contentsline {subsection}{\numberline {4.2.2}Spawning the agents}{31}{subsection.4.2.2}}
\@writefile{toc}{\contentsline {subsection}{\numberline {4.2.3}Building the Feature Vector}{31}{subsection.4.2.3}}
\newlabel{lst:featenum}{{4.1}{32}{Feature Preset}{lstlisting.4.1}{}}
\@writefile{lol}{\contentsline {lstlisting}{\numberline {4.1}Feature Preset}{32}{lstlisting.4.1}}
\@writefile{toc}{\contentsline {subsection}{\numberline {4.2.4}Encounter System}{32}{subsection.4.2.4}}
\@writefile{lof}{\contentsline {figure}{\numberline {4.3}{\ignorespaces Visualising the encounter between two agents.\relax }}{33}{figure.caption.29}}
\newlabel{fig:encounter}{{4.3}{33}{Visualising the encounter between two agents.\relax }{figure.caption.29}{}}
\newlabel{lst:lerp}{{4.2}{34}{{The agent's health is interpolated on the cancellation of an invocation, where prediction.T is given by $(t - t0) / predictedDuration$}}{lstlisting.4.2}{}}
\@writefile{lol}{\contentsline {lstlisting}{\numberline {4.2}{The agent's health is interpolated on the cancellation of an invocation, where prediction.T is given by $(t - t0) / predictedDuration$}.}{34}{lstlisting.4.2}}
\@writefile{lof}{\contentsline {figure}{\numberline {4.4}{\ignorespaces Observer radius visualised as a wireframe sphere.\relax }}{35}{figure.caption.30}}
\newlabel{observer}{{4.4}{35}{Observer radius visualised as a wireframe sphere.\relax }{figure.caption.30}{}}
\@writefile{toc}{\contentsline {subsection}{\numberline {4.2.5}LOD Switching}{35}{subsection.4.2.5}}
\newlabel{fig:npcg:sub2}{{4.5a}{36}{NPC at Proxy LOD\relax }{figure.caption.31}{}}
\newlabel{sub@fig:npcg:sub2}{{a}{36}{NPC at Proxy LOD\relax }{figure.caption.31}{}}
\newlabel{fig:npcg:sub3}{{4.5b}{36}{NPC at Full LOD\relax }{figure.caption.31}{}}
\newlabel{sub@fig:npcg:sub3}{{b}{36}{NPC at Full LOD\relax }{figure.caption.31}{}}
\@writefile{lof}{\contentsline {figure}{\numberline {4.5}{\ignorespaces NPC GameObject Components. The Sampler component would not be in the shipped game.\relax }}{36}{figure.caption.31}}
\newlabel{fig:npcgo}{{4.5}{36}{NPC GameObject Components. The Sampler component would not be in the shipped game.\relax }{figure.caption.31}{}}
\@writefile{toc}{\contentsline {subsection}{\numberline {4.2.6}Machine Learning}{36}{subsection.4.2.6}}
\citation{Threa73:online}
\citation{Syste91:online}
\@writefile{lof}{\contentsline {figure}{\numberline {4.6}{\ignorespaces Algorithm Settings Component\relax }}{37}{figure.caption.32}}
\newlabel{fig:algo}{{4.6}{37}{Algorithm Settings Component\relax }{figure.caption.32}{}}
\@writefile{toc}{\contentsline {subsubsection}{Artificial Neural Network}{37}{section*.33}}
\citation{heaton2008introduction}
\citation{Neura23:online}
\citation{ADeta74:online}
\@writefile{toc}{\contentsline {subsubsection}{K-Nearest Neighbours}{38}{section*.34}}
\@writefile{toc}{\contentsline {subsubsection}{Naive Bayes Classifier}{38}{section*.35}}
\citation{Rando46:online}
\@writefile{toc}{\contentsline {subsubsection}{Decision Tree}{39}{section*.36}}
\@writefile{toc}{\contentsline {subsubsection}{Boosting}{39}{section*.37}}
\@writefile{toc}{\contentsline {subsubsection}{Random Trees}{40}{section*.38}}
\@setckpt{chapter4}{
\setcounter{page}{41}
\setcounter{equation}{0}
\setcounter{enumi}{3}
\setcounter{enumii}{0}
\setcounter{enumiii}{0}
\setcounter{enumiv}{0}
\setcounter{footnote}{0}
\setcounter{mpfootnote}{0}
\setcounter{part}{0}
\setcounter{chapter}{4}
\setcounter{section}{2}
\setcounter{subsection}{6}
\setcounter{subsubsection}{0}
\setcounter{paragraph}{0}
\setcounter{subparagraph}{0}
\setcounter{figure}{6}
\setcounter{table}{0}
\setcounter{lstnumber}{2}
\setcounter{ContinuedFloat}{0}
\setcounter{subfigure}{0}
\setcounter{subtable}{0}
\setcounter{parentequation}{0}
\setcounter{AlgoLine}{0}
\setcounter{algocfline}{1}
\setcounter{algocfproc}{1}
\setcounter{algocf}{1}
\setcounter{Item}{3}
\setcounter{Hfootnote}{2}
\setcounter{bookmark@seq@number}{31}
\setcounter{lstlisting}{2}
\setcounter{section@level}{3}
}
