\relax 
\providecommand\hyper@newdestlabel[2]{}
\citation{Unity93:online}
\citation{Creat53:online}
\@writefile{toc}{\contentsline {chapter}{Chapter{} \numberline {1}Introduction}{1}{chapter.1}}
\@writefile{lof}{\addvspace {10\p@ }}
\@writefile{lot}{\addvspace {10\p@ }}
\@writefile{loa}{\addvspace {10\p@ }}
\citation{plch2014ai}
\@writefile{toc}{\contentsline {section}{\numberline {1.1}Motivation}{2}{section.1.1}}
\@writefile{toc}{\contentsline {section}{\numberline {1.2}Objectives}{2}{section.1.2}}
\@writefile{toc}{\contentsline {section}{\numberline {1.3}Dissertation Roadmap}{3}{section.1.3}}
\@setckpt{chapter1}{
\setcounter{page}{4}
\setcounter{equation}{0}
\setcounter{enumi}{0}
\setcounter{enumii}{0}
\setcounter{enumiii}{0}
\setcounter{enumiv}{0}
\setcounter{footnote}{0}
\setcounter{mpfootnote}{0}
\setcounter{part}{0}
\setcounter{chapter}{1}
\setcounter{section}{3}
\setcounter{subsection}{0}
\setcounter{subsubsection}{0}
\setcounter{paragraph}{0}
\setcounter{subparagraph}{0}
\setcounter{figure}{0}
\setcounter{table}{0}
\setcounter{lstnumber}{1}
\setcounter{ContinuedFloat}{0}
\setcounter{subfigure}{0}
\setcounter{subtable}{0}
\setcounter{parentequation}{0}
\setcounter{AlgoLine}{0}
\setcounter{algocfline}{0}
\setcounter{algocfproc}{0}
\setcounter{algocf}{0}
\setcounter{Item}{0}
\setcounter{Hfootnote}{0}
\setcounter{bookmark@seq@number}{8}
\setcounter{lstlisting}{0}
\setcounter{section@level}{1}
}
