\relax 
\providecommand\hyper@newdestlabel[2]{}
\citation{Wissner:2010:LDA:1948395.1948423}
\citation{sunshine2013managing}
\@writefile{toc}{\contentsline {chapter}{Chapter{} \numberline {5}Evaluation}{41}{chapter.5}}
\@writefile{lof}{\addvspace {10\p@ }}
\@writefile{lot}{\addvspace {10\p@ }}
\@writefile{loa}{\addvspace {10\p@ }}
\@writefile{toc}{\contentsline {section}{\numberline {5.1}Model Accuracy}{41}{section.5.1}}
\@writefile{lot}{\contentsline {table}{\numberline {5.1}{\ignorespaces Model \textunderscore 2\textunderscore 1000. Training set size: 5000. Test set size: 5000. This model predicts whether the agent will survive the encounter.\relax }}{42}{table.caption.39}}
\newlabel{_2_1000}{{5.1}{42}{Model \textunderscore 2\textunderscore 1000. Training set size: 5000. Test set size: 5000. This model predicts whether the agent will survive the encounter.\relax }{table.caption.39}{}}
\@writefile{lot}{\contentsline {table}{\numberline {5.2}{\ignorespaces Model \_2\_0100 - Training set=5000 Test set=5000. This model predicts the duration (in seconds) of a battle\relax }}{43}{table.caption.40}}
\newlabel{_2_0100}{{5.2}{43}{Model \_2\_0100 - Training set=5000 Test set=5000. This model predicts the duration (in seconds) of a battle\relax }{table.caption.40}{}}
\@writefile{lof}{\contentsline {figure}{\numberline {5.1}{\ignorespaces The accuracy and prediction time of the various algorithms. Multiple RTrees are shown as different forest sizes produce different results. Using a small forest will result in a speedier, but less accurate prediction, as shown with the furthest left RTrees.\relax }}{44}{figure.caption.41}}
\newlabel{accxspeed}{{5.1}{44}{The accuracy and prediction time of the various algorithms. Multiple RTrees are shown as different forest sizes produce different results. Using a small forest will result in a speedier, but less accurate prediction, as shown with the furthest left RTrees.\relax }{figure.caption.41}{}}
\@writefile{lof}{\contentsline {figure}{\numberline {5.2}{\ignorespaces The convergence of the various algorithms predicting \texttt  {didSurvive}. A test set size of 1000 was used.\relax }}{45}{figure.caption.42}}
\newlabel{convergeSurvive}{{5.2}{45}{The convergence of the various algorithms predicting \texttt {didSurvive}. A test set size of 1000 was used.\relax }{figure.caption.42}{}}
\@writefile{lof}{\contentsline {figure}{\numberline {5.3}{\ignorespaces The convergence of the various algorithms predicting \texttt  {duration}. A test set size of 1000 was used.\relax }}{46}{figure.caption.43}}
\newlabel{convergeDuration}{{5.3}{46}{The convergence of the various algorithms predicting \texttt {duration}. A test set size of 1000 was used.\relax }{figure.caption.43}{}}
\@writefile{lot}{\contentsline {table}{\numberline {5.3}{\ignorespaces Training results for Neural Nets using the Gaussian activation function trained with feature vectors version 1 (\_1\_1111) and version 2 (\_2\_1111). Training Set: 7000. Test Set: 1000.\relax }}{47}{table.caption.44}}
\newlabel{vectorResponseTable}{{5.3}{47}{Training results for Neural Nets using the Gaussian activation function trained with feature vectors version 1 (\_1\_1111) and version 2 (\_2\_1111). Training Set: 7000. Test Set: 1000.\relax }{table.caption.44}{}}
\newlabel{fveq}{{5.1}{48}{Model Accuracy}{equation.5.1.1}{}}
\@writefile{lof}{\contentsline {figure}{\numberline {5.4}{\ignorespaces The relative importance of each variable in making a prediction for the four target variables. This data was obtained from the Random Trees algorithm.\relax }}{49}{figure.caption.45}}
\newlabel{fig:M1}{{5.4}{49}{The relative importance of each variable in making a prediction for the four target variables. This data was obtained from the Random Trees algorithm.\relax }{figure.caption.45}{}}
\newlabel{varimportfig}{{5.4}{49}{The relative importance of each variable in making a prediction for the four target variables. This data was obtained from the Random Trees algorithm.\relax }{figure.caption.45}{}}
\@writefile{toc}{\contentsline {section}{\numberline {5.2}Runtime Performance}{50}{section.5.2}}
\@writefile{toc}{\contentsline {subsection}{\numberline {5.2.1}Processing}{50}{subsection.5.2.1}}
\@writefile{lof}{\contentsline {figure}{\numberline {5.5}{\ignorespaces The average update time taken with different amounts of agents in the scene. The profiling was done in an optimised build of the game.\relax }}{51}{figure.caption.46}}
\newlabel{updatetimefig}{{5.5}{51}{The average update time taken with different amounts of agents in the scene. The profiling was done in an optimised build of the game.\relax }{figure.caption.46}{}}
\citation{Brom2007}
\@writefile{lof}{\contentsline {figure}{\numberline {5.6}{\ignorespaces CPU utilisation in the Unity Profiler. Orange = Physics Engine. Light purple = NavMeshManager. Green = Rendering. Dark purple = MonoBehaviours i.e. scripts\relax }}{52}{figure.caption.47}}
\newlabel{unityprofiler}{{5.6}{52}{CPU utilisation in the Unity Profiler. Orange = Physics Engine. Light purple = NavMeshManager. Green = Rendering. Dark purple = MonoBehaviours i.e. scripts\relax }{figure.caption.47}{}}
\@writefile{lot}{\contentsline {table}{\numberline {5.4}{\ignorespaces The size of the models in memory\relax }}{53}{table.caption.48}}
\newlabel{modelmem}{{5.4}{53}{The size of the models in memory\relax }{table.caption.48}{}}
\@writefile{toc}{\contentsline {subsection}{\numberline {5.2.2}Memory}{53}{subsection.5.2.2}}
\@writefile{lof}{\contentsline {figure}{\numberline {5.7}{\ignorespaces Memory usage of the application when simulating different numbers of agents. The results are from snapshots of the memory usage taken from the Unity Profiler.\relax }}{54}{figure.caption.49}}
\newlabel{memfig}{{5.7}{54}{Memory usage of the application when simulating different numbers of agents. The results are from snapshots of the memory usage taken from the Unity Profiler.\relax }{figure.caption.49}{}}
\@writefile{toc}{\contentsline {section}{\numberline {5.3}Summary}{54}{section.5.3}}
\@setckpt{chapter5}{
\setcounter{page}{56}
\setcounter{equation}{2}
\setcounter{enumi}{3}
\setcounter{enumii}{0}
\setcounter{enumiii}{0}
\setcounter{enumiv}{0}
\setcounter{footnote}{0}
\setcounter{mpfootnote}{0}
\setcounter{part}{0}
\setcounter{chapter}{5}
\setcounter{section}{3}
\setcounter{subsection}{0}
\setcounter{subsubsection}{0}
\setcounter{paragraph}{0}
\setcounter{subparagraph}{0}
\setcounter{figure}{7}
\setcounter{table}{4}
\setcounter{lstnumber}{2}
\setcounter{ContinuedFloat}{0}
\setcounter{subfigure}{0}
\setcounter{subtable}{0}
\setcounter{parentequation}{0}
\setcounter{AlgoLine}{0}
\setcounter{algocfline}{1}
\setcounter{algocfproc}{1}
\setcounter{algocf}{1}
\setcounter{Item}{3}
\setcounter{Hfootnote}{2}
\setcounter{bookmark@seq@number}{37}
\setcounter{lstlisting}{0}
\setcounter{section@level}{1}
}
