\relax 
\providecommand\hyper@newdestlabel[2]{}
\citation{Brom2007}
\citation{Brom2007}
\citation{Wissner:2010:LDA:1948395.1948423}
\@writefile{toc}{\contentsline {chapter}{Chapter{} \numberline {2}State of the Art}{4}{chapter.2}}
\@writefile{lof}{\addvspace {10\p@ }}
\@writefile{lot}{\addvspace {10\p@ }}
\@writefile{loa}{\addvspace {10\p@ }}
\@writefile{toc}{\contentsline {section}{\numberline {2.1}Simulation LOD}{4}{section.2.1}}
\citation{Brom2007}
\citation{Brom2007}
\citation{Brom2007}
\citation{Brom2007}
\citation{Wissner:2010:LDA:1948395.1948423}
\@writefile{lof}{\contentsline {figure}{\numberline {2.1}{\ignorespaces Hierarchical Representation of Places and Objects \cite  {Brom2007}. The wavy line is called the \textit  {LOD Membrane}. Nothing below the membrane is simulated.\relax }}{5}{figure.caption.8}}
\providecommand*\caption@xref[2]{\@setref\relax\@undefined{#1}}
\newlabel{hier}{{2.1}{5}{Hierarchical Representation of Places and Objects \cite {Brom2007}. The wavy line is called the \textit {LOD Membrane}. Nothing below the membrane is simulated.\relax }{figure.caption.8}{}}
\@writefile{lof}{\contentsline {figure}{\numberline {2.2}{\ignorespaces The behaviour of a miner drinking in a pub at different levels of detail. \cite  {Brom2007}\relax }}{6}{figure.caption.9}}
\newlabel{pub}{{2.2}{6}{The behaviour of a miner drinking in a pub at different levels of detail. \cite {Brom2007}\relax }{figure.caption.9}{}}
\citation{chenney2001proxy}
\citation{arikan2001efficient}
\citation{OS:2010}
\citation{OS:2010}
\citation{OS:2010}
\citation{mac2001proposal}
\citation{halfl20:online}
\citation{CAROL:2002}
\citation{MACNAMEE:2002}
\citation{TheEl21:online}
\citation{macnamee2003creating}
\@writefile{lof}{\contentsline {figure}{\numberline {2.3}{\ignorespaces Grouped Hierarchical LOD \cite  {OS:2010}\relax }}{8}{figure.caption.10}}
\newlabel{groups}{{2.3}{8}{Grouped Hierarchical LOD \cite {OS:2010}\relax }{figure.caption.10}{}}
\citation{sunshine2013managing}
\citation{Ubiso41:online}
\citation{GDCVa68:online}
\citation{GDCVa68:online}
\citation{GDCVa68:online}
\citation{Objec62:online}
\@writefile{toc}{\contentsline {subsection}{\numberline {2.1.1}Simulation/AI LOD in Commercial Games}{10}{subsection.2.1.1}}
\@writefile{toc}{\contentsline {subsubsection}{Assassin's Creed Unity (2014)}{10}{section*.11}}
\citation{S.T.A62:online}
\@writefile{lof}{\contentsline {figure}{\numberline {2.4}{\ignorespaces Assassin's Creed Unity LOD threshold distances \cite  {GDCVa68:online}\relax }}{11}{figure.caption.12}}
\newlabel{ACULOD}{{2.4}{11}{Assassin's Creed Unity LOD threshold distances \cite {GDCVa68:online}\relax }{figure.caption.12}{}}
\@writefile{toc}{\contentsline {subsubsection}{S.T.A.L.K.E.R.: Shadow of Chernobyl (2007)}{11}{section*.13}}
\citation{A-Lif80:online}
\citation{Middl25:online}
\citation{Middl25:online}
\citation{Middl25:online}
\citation{Gamas70:online}
\@writefile{lof}{\contentsline {figure}{\numberline {2.5}{\ignorespaces The Nemesis System in Shadow of Mordor \cite  {Middl25:online}. The Orc captains are displayed according to their place in the Uruk faction hierarchy.\relax }}{13}{figure.caption.15}}
\newlabel{URUK}{{2.5}{13}{The Nemesis System in Shadow of Mordor \cite {Middl25:online}. The Orc captains are displayed according to their place in the Uruk faction hierarchy.\relax }{figure.caption.15}{}}
\@writefile{toc}{\contentsline {subsubsection}{Shadow of Mordor (2014)}{13}{section*.14}}
\citation{bwapi0:online}
\citation{yang2014identifying}
\citation{yang2014identifying}
\citation{yang2014identifying}
\citation{yang2014identifying}
\@writefile{toc}{\contentsline {section}{\numberline {2.2}Machine Learning}{14}{section.2.2}}
\@writefile{toc}{\contentsline {subsection}{\numberline {2.2.1}Combat Outcome Prediction}{14}{subsection.2.2.1}}
\citation{sanchez2015predicting}
\@writefile{lof}{\contentsline {figure}{\numberline {2.6}{\ignorespaces A sequence of graphs describing a game in Dota 2. The game stages are around 9 minutes apart. $Tx\_ Ty =$ Team X Role Y. \cite  {yang2014identifying}\relax }}{15}{figure.caption.16}}
\newlabel{DOTA}{{2.6}{15}{A sequence of graphs describing a game in Dota 2. The game stages are around 9 minutes apart. $Tx\_ Ty =$ Team X Role Y. \cite {yang2014identifying}\relax }{figure.caption.16}{}}
\citation{macnamee2003creating}
\citation{mac2001proposal}
\citation{macnamee2003creating}
\citation{macnamee2003creating}
\citation{bwls}
\@writefile{toc}{\contentsline {subsection}{\numberline {2.2.2}The $\mu $-SIC System}{16}{subsection.2.2.2}}
\@writefile{toc}{\contentsline {subsection}{\numberline {2.2.3}Black and White (2001)}{16}{subsection.2.2.3}}
\@writefile{lof}{\contentsline {figure}{\numberline {2.7}{\ignorespaces The ANN used by $\mu $-SIC \cite  {macnamee2003creating}\relax }}{17}{figure.caption.17}}
\newlabel{ANN}{{2.7}{17}{The ANN used by $\mu $-SIC \cite {macnamee2003creating}\relax }{figure.caption.17}{}}
\@writefile{toc}{\contentsline {section}{\numberline {2.3}Summary}{17}{section.2.3}}
\@setckpt{chapter2}{
\setcounter{page}{18}
\setcounter{equation}{0}
\setcounter{enumi}{3}
\setcounter{enumii}{0}
\setcounter{enumiii}{0}
\setcounter{enumiv}{0}
\setcounter{footnote}{0}
\setcounter{mpfootnote}{0}
\setcounter{part}{0}
\setcounter{chapter}{2}
\setcounter{section}{3}
\setcounter{subsection}{0}
\setcounter{subsubsection}{0}
\setcounter{paragraph}{0}
\setcounter{subparagraph}{0}
\setcounter{figure}{7}
\setcounter{table}{0}
\setcounter{lstnumber}{1}
\setcounter{ContinuedFloat}{0}
\setcounter{subfigure}{0}
\setcounter{subtable}{0}
\setcounter{parentequation}{0}
\setcounter{AlgoLine}{0}
\setcounter{algocfline}{0}
\setcounter{algocfproc}{0}
\setcounter{algocf}{0}
\setcounter{Item}{3}
\setcounter{Hfootnote}{0}
\setcounter{bookmark@seq@number}{16}
\setcounter{lstlisting}{0}
\setcounter{section@level}{1}
}
