\relax 
\providecommand\hyper@newdestlabel[2]{}
\providecommand\HyperFirstAtBeginDocument{\AtBeginDocument}
\HyperFirstAtBeginDocument{\ifx\hyper@anchor\@undefined
\global\let\oldcontentsline\contentsline
\gdef\contentsline#1#2#3#4{\oldcontentsline{#1}{#2}{#3}}
\global\let\oldnewlabel\newlabel
\gdef\newlabel#1#2{\newlabelxx{#1}#2}
\gdef\newlabelxx#1#2#3#4#5#6{\oldnewlabel{#1}{{#2}{#3}}}
\AtEndDocument{\ifx\hyper@anchor\@undefined
\let\contentsline\oldcontentsline
\let\newlabel\oldnewlabel
\fi}
\fi}
\global\let\hyper@last\relax 
\gdef\HyperFirstAtBeginDocument#1{#1}
\providecommand\HyField@AuxAddToFields[1]{}
\providecommand\HyField@AuxAddToCoFields[2]{}
\providecommand \oddpage@label [2]{}
\@writefile{toc}{\contentsline {chapter}{Acknowledgments}{iv}{chapter*.3}}
\@writefile{toc}{\contentsline {chapter}{Abstract}{v}{chapter*.4}}
\@writefile{toc}{\contentsline {chapter}{List of Tables}{viii}{chapter*.6}}
\citation{Brom2007}
\citation{Brom2007}
\citation{OS:2010}
\citation{GDCVa68:online}
\citation{Middl25:online}
\citation{yang2014identifying}
\citation{macnamee2003creating}
\@writefile{toc}{\contentsline {chapter}{List of Figures}{ix}{chapter*.7}}
\@input{chapter1.aux}
\@input{chapter2.aux}
\@input{chapter3.aux}
\@input{chapter4.aux}
\@input{chapter5.aux}
\@input{chapter6.aux}
\@input{appendix1.aux}
\@writefile{toc}{\contentsline {chapter}{Appendices}{60}{section.6.3}}
\bibdata{refs}
\bibcite{Brom2007}{1}
\bibcite{OS:2010}{2}
\bibcite{GDCVa68:online}{3}
\bibcite{Middl25:online}{4}
\bibcite{yang2014identifying}{5}
\bibcite{macnamee2003creating}{6}
\bibcite{Unity93:online}{7}
\bibcite{Creat53:online}{8}
\bibcite{plch2014ai}{9}
\bibcite{Wissner:2010:LDA:1948395.1948423}{10}
\@writefile{toc}{\contentsline {chapter}{Bibliography}{70}{appendix*.61}}
\bibcite{chenney2001proxy}{11}
\bibcite{arikan2001efficient}{12}
\bibcite{mac2001proposal}{13}
\bibcite{halfl20:online}{14}
\bibcite{CAROL:2002}{15}
\bibcite{MACNAMEE:2002}{16}
\bibcite{TheEl21:online}{17}
\bibcite{sunshine2013managing}{18}
\bibcite{Ubiso41:online}{19}
\bibcite{Objec62:online}{20}
\bibcite{S.T.A62:online}{21}
\bibcite{A-Lif80:online}{22}
\bibcite{Gamas70:online}{23}
\bibcite{bwapi0:online}{24}
\bibcite{sanchez2015predicting}{25}
\bibcite{bwls}{26}
\bibcite{mulally2014anemotional}{27}
\bibcite{mcnulty2014residual}{28}
\bibcite{Modul49:online}{29}
\bibcite{quinlan1986induction}{30}
\bibcite{breiman1984classification}{31}
\bibcite{OpenC86:online}{32}
\bibcite{EmguC64:online}{33}
\bibcite{Machi50:online}{34}
\bibcite{Threa73:online}{35}
\bibcite{Syste91:online}{36}
\bibcite{heaton2008introduction}{37}
\bibcite{Neura23:online}{38}
\bibcite{ADeta74:online}{39}
\bibcite{Rando46:online}{40}
\bibcite{Middl39:online}{41}
\bibcite{Middl66:online}{42}
\bibstyle{ieeetr}
